GAS LISTING /tmp/ccr9DWhv.s 			page 1


   1               		.file	"chheap.c"
   2               		.arch msp430x1611
   3               		.cpu 430
   4               		.mpy 16
   5               	
   6               		.text
   7               	.Ltext0:
   8               		.p2align 1,0
   9               	.global	_heap_init
  10               		.type	_heap_init,@function
  11               	/***********************
  12               	 * Function `_heap_init' 
  13               	 ***********************/
  14               	_heap_init:
  15               	.LFB7:
  16               		.file 1 "../../os/kernel/src/chheap.c"
  17               		.loc 1 68 0
  18               		.loc 1 69 0
  19 0000 3F40 0000 		mov	#default_heap, r15
  20 0004 BF40 0000 		mov	#chCoreAlloc, @r15
  20      0000 
  21               		.loc 1 70 0
  22 000a 8F43 0200 		mov	#0, 2(r15)
  23               		.loc 1 71 0
  24 000e 8F43 0400 		mov	#0, 4(r15)
  25               		.loc 1 73 0
  26 0012 3F50 0600 		add	#6, r15
  27 0016 B012 0000 		call	#chMtxInit
  28               		.loc 1 77 0
  29 001a 3041      		ret
  30               	.LFE7:
  31               	.Lfe1:
  32               		.size	_heap_init,.Lfe1-_heap_init
  33               	;; End of function 
  34               	
  35               		.p2align 1,0
  36               	.global	chHeapInit
  37               		.type	chHeapInit,@function
  38               	/***********************
  39               	 * Function `chHeapInit' 
  40               	 ***********************/
  41               	chHeapInit:
  42               	.LFB8:
  43               		.loc 1 92 0
  44               	.LVL0:
  45               		.loc 1 97 0
  46 001c 8F43 0000 		mov	#0, @r15
  47               	.LVL1:
  48               		.loc 1 98 0
  49 0020 8F4E 0200 		mov	r14, 2(r15)
  50               		.loc 1 99 0
  51 0024 8F43 0400 		mov	#0, 4(r15)
  52               		.loc 1 100 0
  53 0028 8E43 0000 		mov	#0, @r14
  54               		.loc 1 101 0
  55 002c 2D82      		sub	#4, r13
  56               	.LVL2:
GAS LISTING /tmp/ccr9DWhv.s 			page 2


  57 002e 8E4D 0200 		mov	r13, 2(r14)
  58               		.loc 1 103 0
  59 0032 3F50 0600 		add	#6, r15
  60               	.LVL3:
  61 0036 B012 0000 		call	#chMtxInit
  62               	.LVL4:
  63               		.loc 1 107 0
  64 003a 3041      		ret
  65               	.LFE8:
  66               	.Lfe2:
  67               		.size	chHeapInit,.Lfe2-chHeapInit
  68               	;; End of function 
  69               	
  70               		.p2align 1,0
  71               	.global	chHeapAlloc
  72               		.type	chHeapAlloc,@function
  73               	/***********************
  74               	 * Function `chHeapAlloc' 
  75               	 ***********************/
  76               	chHeapAlloc:
  77               	.LFB9:
  78               		.loc 1 125 0
  79               	.LVL5:
  80 003c 0B12      		push	r11
  81               	.LCFI0:
  82 003e 0A12      		push	r10
  83               	.LCFI1:
  84 0040 0912      		push	r9
  85               	.LCFI2:
  86 0042 0812      		push	r8
  87               	.LCFI3:
  88 0044 084F      		mov	r15, r8
  89               		.loc 1 128 0
  90 0046 0F93      		cmp	#0, r15
  91 0048 4724      		jeq	.L14
  92               	.L4:
  93               	.LVL6:
  94               		.loc 1 131 0
  95 004a 094E      		mov	r14, r9
  96 004c 1953      		add	#1, r9
  97 004e 39F0 FEFF 		and	#llo(-2), r9
  98               	.LVL7:
  99               		.loc 1 132 0
 100 0052 0A48      		mov	r8, r10
 101 0054 2A53      		add	#2, r10
 102               	.LVL8:
 103               		.loc 1 133 0
 104 0056 0F48      		mov	r8, r15
 105 0058 3F50 0600 		add	#6, r15
 106 005c B012 0000 		call	#chMtxLock
 107               		.loc 1 135 0
 108 0060 013C      		jmp	.L5
 109               	.LVL9:
 110               	.L11:
 111               		.loc 1 137 0
 112 0062 0A4B      		mov	r11, r10
 113               	.LVL10:
GAS LISTING /tmp/ccr9DWhv.s 			page 3


 114               	.L5:
 115               		.loc 1 135 0 discriminator 1
 116 0064 2B4A      		mov	@r10, r11
 117 0066 0B93      		cmp	#0, r11
 118 0068 2124      		jeq	.L15
 119               	.LVL11:
 120               		.loc 1 137 0
 121 006a 1E4B 0200 		mov	2(r11), r14
 122 006e 0E99      		cmp	r9, r14
 123 0070 F82B      		jlo	.L11
 124               		.loc 1 138 0
 125 0072 0F49      		mov	r9, r15
 126 0074 2F52      		add	#4, r15
 127 0076 0E9F      		cmp	r15, r14
 128 0078 1628      		jlo	.L16
 129               		.loc 1 146 0
 130 007a 0F5B      		add	r11, r15
 131               	.LVL12:
 132               		.loc 1 147 0
 133 007c AF4B 0000 		mov	@r11, @r15
 134               		.loc 1 148 0
 135 0080 0E89      		sub	r9, r14
 136 0082 2E82      		sub	#4, r14
 137 0084 8F4E 0200 		mov	r14, 2(r15)
 138               		.loc 1 149 0
 139 0088 8A4F 0000 		mov	r15, @r10
 140               		.loc 1 150 0
 141 008c 8B49 0200 		mov	r9, 2(r11)
 142               	.LVL13:
 143               	.L7:
 144               		.loc 1 152 0
 145 0090 8B48 0000 		mov	r8, @r11
 146               		.loc 1 154 0
 147 0094 B012 0000 		call	#chMtxUnlock
 148               	.LVL14:
 149               		.loc 1 155 0
 150 0098 2B52      		add	#4, r11
 151               	.LVL15:
 152               	.L8:
 153               		.loc 1 174 0
 154 009a 0F4B      		mov	r11, r15
 155 009c 3841      		pop	r8
 156               	.LVL16:
 157 009e 3941      		pop	r9
 158               	.LVL17:
 159 00a0 3A41      		pop	r10
 160               	.LVL18:
 161 00a2 3B41      		pop	r11
 162 00a4 3041      		ret
 163               	.LVL19:
 164               	.L16:
 165               		.loc 1 142 0
 166 00a6 AA4B 0000 		mov	@r11, @r10
 167 00aa F23F      		jmp	.L7
 168               	.LVL20:
 169               	.L15:
 170               		.loc 1 160 0
GAS LISTING /tmp/ccr9DWhv.s 			page 4


 171 00ac B012 0000 		call	#chMtxUnlock
 172               		.loc 1 164 0
 173 00b0 2E48      		mov	@r8, r14
 174 00b2 0E93      		cmp	#0, r14
 175 00b4 1424      		jeq	.L12
 176               		.loc 1 165 0
 177 00b6 0F49      		mov	r9, r15
 178 00b8 2F52      		add	#4, r15
 179 00ba 8E12      		call	r14
 180 00bc 0B4F      		mov	r15, r11
 181               	.LVL21:
 182               		.loc 1 166 0
 183 00be 0F93      		cmp	#0, r15
 184 00c0 EC27      		jeq	.L8
 185               		.loc 1 167 0
 186 00c2 8F48 0000 		mov	r8, @r15
 187               		.loc 1 168 0
 188 00c6 8F49 0200 		mov	r9, 2(r15)
 189               	.LVL22:
 190               		.loc 1 170 0
 191 00ca 2B52      		add	#4, r11
 192               		.loc 1 174 0
 193 00cc 0F4B      		mov	r11, r15
 194               	.LVL23:
 195 00ce 3841      		pop	r8
 196               	.LVL24:
 197 00d0 3941      		pop	r9
 198               	.LVL25:
 199 00d2 3A41      		pop	r10
 200               	.LVL26:
 201 00d4 3B41      		pop	r11
 202               	.LVL27:
 203 00d6 3041      		ret
 204               	.LVL28:
 205               	.L14:
 206               		.loc 1 129 0
 207 00d8 3840 0000 		mov	#default_heap, r8
 208               	.LVL29:
 209 00dc B63F      		jmp	.L4
 210               	.LVL30:
 211               	.L12:
 212               		.loc 1 173 0
 213 00de 0B43      		mov	#0, r11
 214 00e0 DC3F      		jmp	.L8
 215               	.LFE9:
 216               	.Lfe3:
 217               		.size	chHeapAlloc,.Lfe3-chHeapAlloc
 218               	;; End of function 
 219               	
 220               		.p2align 1,0
 221               	.global	chHeapFree
 222               		.type	chHeapFree,@function
 223               	/***********************
 224               	 * Function `chHeapFree' 
 225               	 ***********************/
 226               	chHeapFree:
 227               	.LFB10:
GAS LISTING /tmp/ccr9DWhv.s 			page 5


 228               		.loc 1 187 0
 229               	.LVL31:
 230 00e2 0B12      		push	r11
 231               	.LCFI4:
 232 00e4 0A12      		push	r10
 233               	.LCFI5:
 234 00e6 0912      		push	r9
 235               	.LCFI6:
 236 00e8 0A4F      		mov	r15, r10
 237               		.loc 1 193 0
 238 00ea 0B4F      		mov	r15, r11
 239 00ec 2B82      		sub	#4, r11
 240               	.LVL32:
 241               		.loc 1 194 0
 242 00ee 1F4F FCFF 		mov	-4(r15), r15
 243               	.LVL33:
 244               		.loc 1 195 0
 245 00f2 094F      		mov	r15, r9
 246 00f4 2953      		add	#2, r9
 247               	.LVL34:
 248               		.loc 1 196 0
 249 00f6 3F50 0600 		add	#6, r15
 250 00fa B012 0000 		call	#chMtxLock
 251               	.LVL35:
 252               		.loc 1 195 0
 253 00fe 0E49      		mov	r9, r14
 254               	.LVL36:
 255               	.L24:
 256               		.loc 1 204 0
 257 0100 2D4E      		mov	@r14, r13
 258               		.loc 1 203 0
 259 0102 0E99      		cmp	r9, r14
 260 0104 0224      		jeq	.L18
 261               		.loc 1 203 0 is_stmt 0 discriminator 2
 262 0106 0E9B      		cmp	r11, r14
 263 0108 042C      		jhs	.L21
 264               	.L18:
 265               		.loc 1 203 0 discriminator 1
 266 010a 0D93      		cmp	#0, r13
 267 010c 0424      		jeq	.L20
 268               		.loc 1 204 0 is_stmt 1
 269 010e 0B9D      		cmp	r13, r11
 270 0110 0228      		jlo	.L20
 271               	.L21:
 272               	.LVL37:
 273               		.loc 1 221 0
 274 0112 0E4D      		mov	r13, r14
 275               	.LVL38:
 276               		.loc 1 222 0
 277 0114 F53F      		jmp	.L24
 278               	.LVL39:
 279               	.L20:
 280               		.loc 1 206 0
 281 0116 8A4D FCFF 		mov	r13, -4(r10)
 282               		.loc 1 207 0
 283 011a 8E4B 0000 		mov	r11, @r14
 284               		.loc 1 209 0
GAS LISTING /tmp/ccr9DWhv.s 			page 6


 285 011e 1D4A FEFF 		mov	-2(r10), r13
 286 0122 0F4D      		mov	r13, r15
 287 0124 2F52      		add	#4, r15
 288 0126 0F5B      		add	r11, r15
 289 0128 1F9A FCFF 		cmp	-4(r10), r15
 290 012c 0D24      		jeq	.L25
 291               	.L22:
 292               		.loc 1 214 0
 293 012e 1D4E 0200 		mov	2(r14), r13
 294 0132 0F4D      		mov	r13, r15
 295 0134 2F52      		add	#4, r15
 296 0136 0F5E      		add	r14, r15
 297 0138 0B9F      		cmp	r15, r11
 298 013a 0E24      		jeq	.L26
 299               		.loc 1 224 0
 300 013c B012 0000 		call	#chMtxUnlock
 301               	.LVL40:
 302               		.loc 1 226 0
 303 0140 3941      		pop	r9
 304               	.LVL41:
 305 0142 3A41      		pop	r10
 306               	.LVL42:
 307 0144 3B41      		pop	r11
 308               	.LVL43:
 309 0146 3041      		ret
 310               	.LVL44:
 311               	.L25:
 312               		.loc 1 211 0
 313 0148 1D5F 0200 		add	2(r15), r13
 314 014c 2D52      		add	#4, r13
 315 014e 8A4D FEFF 		mov	r13, -2(r10)
 316               		.loc 1 212 0
 317 0152 AA4F FCFF 		mov	@r15, -4(r10)
 318 0156 EB3F      		jmp	.L22
 319               	.L26:
 320               		.loc 1 216 0
 321 0158 1D5A FEFF 		add	-2(r10), r13
 322 015c 2D52      		add	#4, r13
 323 015e 8E4D 0200 		mov	r13, 2(r14)
 324               		.loc 1 217 0
 325 0162 9E4A FCFF 		mov	-4(r10), @r14
 325      0000 
 326               		.loc 1 224 0
 327 0168 B012 0000 		call	#chMtxUnlock
 328               	.LVL45:
 329               		.loc 1 226 0
 330 016c 3941      		pop	r9
 331               	.LVL46:
 332 016e 3A41      		pop	r10
 333               	.LVL47:
 334 0170 3B41      		pop	r11
 335               	.LVL48:
 336 0172 3041      		ret
 337               	.LFE10:
 338               	.Lfe4:
 339               		.size	chHeapFree,.Lfe4-chHeapFree
 340               	;; End of function 
GAS LISTING /tmp/ccr9DWhv.s 			page 7


 341               	
 342               		.p2align 1,0
 343               	.global	chHeapStatus
 344               		.type	chHeapStatus,@function
 345               	/***********************
 346               	 * Function `chHeapStatus' 
 347               	 ***********************/
 348               	chHeapStatus:
 349               	.LFB11:
 350               		.loc 1 243 0
 351               	.LVL49:
 352 0174 0B12      		push	r11
 353               	.LCFI7:
 354 0176 0A12      		push	r10
 355               	.LCFI8:
 356 0178 0B4F      		mov	r15, r11
 357 017a 0A4E      		mov	r14, r10
 358               		.loc 1 247 0
 359 017c 0F93      		cmp	#0, r15
 360 017e 1B24      		jeq	.L35
 361               	.LVL50:
 362               	.L28:
 363               		.loc 1 250 0
 364 0180 0F4B      		mov	r11, r15
 365 0182 3F50 0600 		add	#6, r15
 366 0186 B012 0000 		call	#chMtxLock
 367               	.LVL51:
 368               		.loc 1 253 0
 369 018a 1D4B 0200 		mov	2(r11), r13
 370 018e 0F43      		mov	#0, r15
 371 0190 0B43      		mov	#0, r11
 372               	.LVL52:
 373 0192 0D93      		cmp	#0, r13
 374 0194 0624      		jeq	.L29
 375               	.LVL53:
 376               	.L30:
 377               		.loc 1 254 0 discriminator 2
 378 0196 1F5D 0200 		add	2(r13), r15
 379               	.LVL54:
 380               		.loc 1 253 0 discriminator 2
 381 019a 1B53      		add	#1, r11
 382               	.LVL55:
 383 019c 2D4D      		mov	@r13, r13
 384               	.LVL56:
 385 019e 0D93      		cmp	#0, r13
 386 01a0 FA23      		jne	.L30
 387               	.LVL57:
 388               	.L29:
 389               		.loc 1 255 0
 390 01a2 0A93      		cmp	#0, r10
 391 01a4 0224      		jeq	.L31
 392               		.loc 1 256 0
 393 01a6 8A4F 0000 		mov	r15, @r10
 394               	.L31:
 395               		.loc 1 258 0
 396 01aa B012 0000 		call	#chMtxUnlock
 397               		.loc 1 260 0
GAS LISTING /tmp/ccr9DWhv.s 			page 8


 398 01ae 0F4B      		mov	r11, r15
 399 01b0 3A41      		pop	r10
 400               	.LVL58:
 401 01b2 3B41      		pop	r11
 402 01b4 3041      		ret
 403               	.LVL59:
 404               	.L35:
 405               		.loc 1 248 0
 406 01b6 3B40 0000 		mov	#default_heap, r11
 407               	.LVL60:
 408 01ba E23F      		jmp	.L28
 409               	.LFE11:
 410               	.Lfe5:
 411               		.size	chHeapStatus,.Lfe5-chHeapStatus
 412               	;; End of function 
 413               	
 414               		.local default_heap
 415               		.comm default_heap,14,2
 416               		.section	.debug_frame,"",@progbits
 417               	.Lframe0:
 418 0000 0E00 0000 		.4byte	.LECIE0-.LSCIE0
 419               	.LSCIE0:
 420 0004 FFFF FFFF 		.4byte	0xffffffff
 421 0008 01        		.byte	0x1
 422 0009 00        		.string	""
 423 000a 01        		.uleb128 0x1
 424 000b 7E        		.sleb128 -2
 425 000c 00        		.byte	0
 426 000d 0C        		.byte	0xc
 427 000e 01        		.uleb128 0x1
 428 000f 02        		.uleb128 0x2
 429 0010 80        		.byte	0x80
 430 0011 01        		.uleb128 0x1
 431               		.p2align 1,0
 432               	.LECIE0:
 433               	.LSFDE0:
 434 0012 0800 0000 		.4byte	.LEFDE0-.LASFDE0
 435               	.LASFDE0:
 436 0016 0000 0000 		.4byte	.Lframe0
 437 001a 0000      		.2byte	.LFB7
 438 001c 1C00      		.2byte	.LFE7-.LFB7
 439               		.p2align 1,0
 440               	.LEFDE0:
 441               	.LSFDE2:
 442 001e 0800 0000 		.4byte	.LEFDE2-.LASFDE2
 443               	.LASFDE2:
 444 0022 0000 0000 		.4byte	.Lframe0
 445 0026 0000      		.2byte	.LFB8
 446 0028 2000      		.2byte	.LFE8-.LFB8
 447               		.p2align 1,0
 448               	.LEFDE2:
 449               	.LSFDE4:
 450 002a 1C00 0000 		.4byte	.LEFDE4-.LASFDE4
 451               	.LASFDE4:
 452 002e 0000 0000 		.4byte	.Lframe0
 453 0032 0000      		.2byte	.LFB9
 454 0034 A600      		.2byte	.LFE9-.LFB9
GAS LISTING /tmp/ccr9DWhv.s 			page 9


 455 0036 42        		.byte	0x4
 456               		.4byte	.LCFI0-.LFB9
 457 0037 0E        		.byte	0xe
 458 0038 04        		.uleb128 0x4
 459 0039 8B        		.byte	0x8b
 460 003a 02        		.uleb128 0x2
 461 003b 42        		.byte	0x4
 462               		.4byte	.LCFI1-.LCFI0
 463 003c 0E        		.byte	0xe
 464 003d 06        		.uleb128 0x6
 465 003e 8A        		.byte	0x8a
 466 003f 03        		.uleb128 0x3
 467 0040 42        		.byte	0x4
 468               		.4byte	.LCFI2-.LCFI1
 469 0041 0E        		.byte	0xe
 470 0042 08        		.uleb128 0x8
 471 0043 89        		.byte	0x89
 472 0044 04        		.uleb128 0x4
 473 0045 42        		.byte	0x4
 474               		.4byte	.LCFI3-.LCFI2
 475 0046 0E        		.byte	0xe
 476 0047 0A        		.uleb128 0xa
 477 0048 88        		.byte	0x88
 478 0049 05        		.uleb128 0x5
 479               		.p2align 1,0
 480               	.LEFDE4:
 481               	.LSFDE6:
 482 004a 1800 0000 		.4byte	.LEFDE6-.LASFDE6
 483               	.LASFDE6:
 484 004e 0000 0000 		.4byte	.Lframe0
 485 0052 0000      		.2byte	.LFB10
 486 0054 9200      		.2byte	.LFE10-.LFB10
 487 0056 42        		.byte	0x4
 488               		.4byte	.LCFI4-.LFB10
 489 0057 0E        		.byte	0xe
 490 0058 04        		.uleb128 0x4
 491 0059 8B        		.byte	0x8b
 492 005a 02        		.uleb128 0x2
 493 005b 42        		.byte	0x4
 494               		.4byte	.LCFI5-.LCFI4
 495 005c 0E        		.byte	0xe
 496 005d 06        		.uleb128 0x6
 497 005e 8A        		.byte	0x8a
 498 005f 03        		.uleb128 0x3
 499 0060 42        		.byte	0x4
 500               		.4byte	.LCFI6-.LCFI5
 501 0061 0E        		.byte	0xe
 502 0062 08        		.uleb128 0x8
 503 0063 89        		.byte	0x89
 504 0064 04        		.uleb128 0x4
 505 0065 00        		.p2align 1,0
 506               	.LEFDE6:
 507               	.LSFDE8:
 508 0066 1200 0000 		.4byte	.LEFDE8-.LASFDE8
 509               	.LASFDE8:
 510 006a 0000 0000 		.4byte	.Lframe0
 511 006e 0000      		.2byte	.LFB11
GAS LISTING /tmp/ccr9DWhv.s 			page 10


 512 0070 4800      		.2byte	.LFE11-.LFB11
 513 0072 42        		.byte	0x4
 514               		.4byte	.LCFI7-.LFB11
 515 0073 0E        		.byte	0xe
 516 0074 04        		.uleb128 0x4
 517 0075 8B        		.byte	0x8b
 518 0076 02        		.uleb128 0x2
 519 0077 42        		.byte	0x4
 520               		.4byte	.LCFI8-.LCFI7
 521 0078 0E        		.byte	0xe
 522 0079 06        		.uleb128 0x6
 523 007a 8A        		.byte	0x8a
 524 007b 03        		.uleb128 0x3
 525               		.p2align 1,0
 526               	.LEFDE8:
 527               		.text
 528               	.Letext0:
 529               		.file 2 "/usr/lib/gcc/msp430/4.6.3/include/stddef.h"
 530               		.file 3 "/usr/lib/gcc/msp430/4.6.3/../../../../msp430/include/stdint.h"
 531               		.file 4 "../../os/ports/GCC/MSP430/chtypes.h"
 532               		.file 5 "../../os/kernel/include/chlists.h"
 533               		.file 6 "../../os/kernel/include/chthreads.h"
 534               		.file 7 "../../os/ports/GCC/MSP430/chcore.h"
 535               		.file 8 "../../os/kernel/include/chmtx.h"
 536               		.file 9 "../../os/kernel/include/chmemcore.h"
 537               		.file 10 "../../os/kernel/include/chheap.h"
 538               		.section	.debug_info,"",@progbits
 539               	.Ldebug_info0:
 540 0000 1006 0000 		.4byte	0x610
 541 0004 0200      		.2byte	0x2
 542 0006 0000 0000 		.4byte	.Ldebug_abbrev0
 543 000a 02        		.byte	0x2
 544 000b 01        		.uleb128 0x1
 545 000c 0000 0000 		.4byte	.LASF71
 546 0010 01        		.byte	0x1
 547 0011 0000 0000 		.4byte	.LASF72
 548 0015 0000 0000 		.4byte	.LASF73
 549 0019 0000      		.2byte	.Ltext0
 550 001b 0000      		.2byte	.Letext0
 551 001d 0000 0000 		.4byte	.Ldebug_line0
 552 0021 02        		.uleb128 0x2
 553 0022 04        		.byte	0x4
 554 0023 05        		.byte	0x5
 555 0024 0000 0000 		.4byte	.LASF0
 556 0028 03        		.uleb128 0x3
 557 0029 0000 0000 		.4byte	.LASF3
 558 002d 02        		.byte	0x2
 559 002e D4        		.byte	0xd4
 560 002f 3300 0000 		.4byte	0x33
 561 0033 02        		.uleb128 0x2
 562 0034 02        		.byte	0x2
 563 0035 07        		.byte	0x7
 564 0036 0000 0000 		.4byte	.LASF1
 565 003a 02        		.uleb128 0x2
 566 003b 01        		.byte	0x1
 567 003c 06        		.byte	0x6
 568 003d 0000 0000 		.4byte	.LASF2
GAS LISTING /tmp/ccr9DWhv.s 			page 11


 569 0041 03        		.uleb128 0x3
 570 0042 0000 0000 		.4byte	.LASF4
 571 0046 03        		.byte	0x3
 572 0047 27        		.byte	0x27
 573 0048 4C00 0000 		.4byte	0x4c
 574 004c 04        		.uleb128 0x4
 575 004d 02        		.byte	0x2
 576 004e 05        		.byte	0x5
 577 004f 696E 7400 		.string	"int"
 578 0053 02        		.uleb128 0x2
 579 0054 08        		.byte	0x8
 580 0055 05        		.byte	0x5
 581 0056 0000 0000 		.4byte	.LASF5
 582 005a 03        		.uleb128 0x3
 583 005b 0000 0000 		.4byte	.LASF6
 584 005f 03        		.byte	0x3
 585 0060 2B        		.byte	0x2b
 586 0061 6500 0000 		.4byte	0x65
 587 0065 02        		.uleb128 0x2
 588 0066 01        		.byte	0x1
 589 0067 08        		.byte	0x8
 590 0068 0000 0000 		.4byte	.LASF7
 591 006c 03        		.uleb128 0x3
 592 006d 0000 0000 		.4byte	.LASF8
 593 0071 03        		.byte	0x3
 594 0072 2C        		.byte	0x2c
 595 0073 3300 0000 		.4byte	0x33
 596 0077 02        		.uleb128 0x2
 597 0078 04        		.byte	0x4
 598 0079 07        		.byte	0x7
 599 007a 0000 0000 		.4byte	.LASF9
 600 007e 02        		.uleb128 0x2
 601 007f 08        		.byte	0x8
 602 0080 07        		.byte	0x7
 603 0081 0000 0000 		.4byte	.LASF10
 604 0085 03        		.uleb128 0x3
 605 0086 0000 0000 		.4byte	.LASF11
 606 008a 04        		.byte	0x4
 607 008b 2A        		.byte	0x2a
 608 008c 5A00 0000 		.4byte	0x5a
 609 0090 03        		.uleb128 0x3
 610 0091 0000 0000 		.4byte	.LASF12
 611 0095 04        		.byte	0x4
 612 0096 2B        		.byte	0x2b
 613 0097 5A00 0000 		.4byte	0x5a
 614 009b 03        		.uleb128 0x3
 615 009c 0000 0000 		.4byte	.LASF13
 616 00a0 04        		.byte	0x4
 617 00a1 2C        		.byte	0x2c
 618 00a2 5A00 0000 		.4byte	0x5a
 619 00a6 03        		.uleb128 0x3
 620 00a7 0000 0000 		.4byte	.LASF14
 621 00ab 04        		.byte	0x4
 622 00ac 2D        		.byte	0x2d
 623 00ad 5A00 0000 		.4byte	0x5a
 624 00b1 03        		.uleb128 0x3
 625 00b2 0000 0000 		.4byte	.LASF15
GAS LISTING /tmp/ccr9DWhv.s 			page 12


 626 00b6 04        		.byte	0x4
 627 00b7 2E        		.byte	0x2e
 628 00b8 6C00 0000 		.4byte	0x6c
 629 00bc 03        		.uleb128 0x3
 630 00bd 0000 0000 		.4byte	.LASF16
 631 00c1 04        		.byte	0x4
 632 00c2 2F        		.byte	0x2f
 633 00c3 4100 0000 		.4byte	0x41
 634 00c7 03        		.uleb128 0x3
 635 00c8 0000 0000 		.4byte	.LASF17
 636 00cc 04        		.byte	0x4
 637 00cd 31        		.byte	0x31
 638 00ce 6C00 0000 		.4byte	0x6c
 639 00d2 03        		.uleb128 0x3
 640 00d3 0000 0000 		.4byte	.LASF18
 641 00d7 04        		.byte	0x4
 642 00d8 32        		.byte	0x32
 643 00d9 6C00 0000 		.4byte	0x6c
 644 00dd 03        		.uleb128 0x3
 645 00de 0000 0000 		.4byte	.LASF19
 646 00e2 05        		.byte	0x5
 647 00e3 23        		.byte	0x23
 648 00e4 E800 0000 		.4byte	0xe8
 649 00e8 05        		.uleb128 0x5
 650 00e9 0000 0000 		.4byte	.LASF19
 651 00ed 26        		.byte	0x26
 652 00ee 06        		.byte	0x6
 653 00ef 57        		.byte	0x57
 654 00f0 0D02 0000 		.4byte	0x20d
 655 00f4 06        		.uleb128 0x6
 656 00f5 0000 0000 		.4byte	.LASF20
 657 00f9 06        		.byte	0x6
 658 00fa 58        		.byte	0x58
 659 00fb 3202 0000 		.4byte	0x232
 660 00ff 02        		.byte	0x2
 661 0100 23        		.byte	0x23
 662 0101 00        		.uleb128 0
 663 0102 06        		.uleb128 0x6
 664 0103 0000 0000 		.4byte	.LASF21
 665 0107 06        		.byte	0x6
 666 0108 5A        		.byte	0x5a
 667 0109 3202 0000 		.4byte	0x232
 668 010d 02        		.byte	0x2
 669 010e 23        		.byte	0x23
 670 010f 02        		.uleb128 0x2
 671 0110 06        		.uleb128 0x6
 672 0111 0000 0000 		.4byte	.LASF22
 673 0115 06        		.byte	0x6
 674 0116 5C        		.byte	0x5c
 675 0117 B100 0000 		.4byte	0xb1
 676 011b 02        		.byte	0x2
 677 011c 23        		.byte	0x23
 678 011d 04        		.uleb128 0x4
 679 011e 06        		.uleb128 0x6
 680 011f 0000 0000 		.4byte	.LASF23
 681 0123 06        		.byte	0x6
 682 0124 5D        		.byte	0x5d
GAS LISTING /tmp/ccr9DWhv.s 			page 13


 683 0125 0103 0000 		.4byte	0x301
 684 0129 02        		.byte	0x2
 685 012a 23        		.byte	0x23
 686 012b 06        		.uleb128 0x6
 687 012c 06        		.uleb128 0x6
 688 012d 0000 0000 		.4byte	.LASF24
 689 0131 06        		.byte	0x6
 690 0132 5F        		.byte	0x5f
 691 0133 3202 0000 		.4byte	0x232
 692 0137 02        		.byte	0x2
 693 0138 23        		.byte	0x23
 694 0139 08        		.uleb128 0x8
 695 013a 06        		.uleb128 0x6
 696 013b 0000 0000 		.4byte	.LASF25
 697 013f 06        		.byte	0x6
 698 0140 60        		.byte	0x60
 699 0141 3202 0000 		.4byte	0x232
 700 0145 02        		.byte	0x2
 701 0146 23        		.byte	0x23
 702 0147 0A        		.uleb128 0xa
 703 0148 06        		.uleb128 0x6
 704 0149 0000 0000 		.4byte	.LASF26
 705 014d 06        		.byte	0x6
 706 014e 67        		.byte	0x67
 707 014f 7504 0000 		.4byte	0x475
 708 0153 02        		.byte	0x2
 709 0154 23        		.byte	0x23
 710 0155 0C        		.uleb128 0xc
 711 0156 06        		.uleb128 0x6
 712 0157 0000 0000 		.4byte	.LASF27
 713 015b 06        		.byte	0x6
 714 015c 72        		.byte	0x72
 715 015d 9000 0000 		.4byte	0x90
 716 0161 02        		.byte	0x2
 717 0162 23        		.byte	0x23
 718 0163 0E        		.uleb128 0xe
 719 0164 06        		.uleb128 0x6
 720 0165 0000 0000 		.4byte	.LASF28
 721 0169 06        		.byte	0x6
 722 016a 76        		.byte	0x76
 723 016b 8500 0000 		.4byte	0x85
 724 016f 02        		.byte	0x2
 725 0170 23        		.byte	0x23
 726 0171 0F        		.uleb128 0xf
 727 0172 06        		.uleb128 0x6
 728 0173 0000 0000 		.4byte	.LASF29
 729 0177 06        		.byte	0x6
 730 0178 7B        		.byte	0x7b
 731 0179 9B00 0000 		.4byte	0x9b
 732 017d 02        		.byte	0x2
 733 017e 23        		.byte	0x23
 734 017f 10        		.uleb128 0x10
 735 0180 06        		.uleb128 0x6
 736 0181 0000 0000 		.4byte	.LASF30
 737 0185 06        		.byte	0x6
 738 0186 81        		.byte	0x81
 739 0187 A600 0000 		.4byte	0xa6
GAS LISTING /tmp/ccr9DWhv.s 			page 14


 740 018b 02        		.byte	0x2
 741 018c 23        		.byte	0x23
 742 018d 11        		.uleb128 0x11
 743 018e 06        		.uleb128 0x6
 744 018f 0000 0000 		.4byte	.LASF31
 745 0193 06        		.byte	0x6
 746 0194 88        		.byte	0x88
 747 0195 2103 0000 		.4byte	0x321
 748 0199 02        		.byte	0x2
 749 019a 23        		.byte	0x23
 750 019b 12        		.uleb128 0x12
 751 019c 07        		.uleb128 0x7
 752 019d 705F 7500 		.string	"p_u"
 753 01a1 06        		.byte	0x6
 754 01a2 AD        		.byte	0xad
 755 01a3 4004 0000 		.4byte	0x440
 756 01a7 02        		.byte	0x2
 757 01a8 23        		.byte	0x23
 758 01a9 14        		.uleb128 0x14
 759 01aa 06        		.uleb128 0x6
 760 01ab 0000 0000 		.4byte	.LASF32
 761 01af 06        		.byte	0x6
 762 01b0 B2        		.byte	0xb2
 763 01b1 5A02 0000 		.4byte	0x25a
 764 01b5 02        		.byte	0x2
 765 01b6 23        		.byte	0x23
 766 01b7 16        		.uleb128 0x16
 767 01b8 06        		.uleb128 0x6
 768 01b9 0000 0000 		.4byte	.LASF33
 769 01bd 06        		.byte	0x6
 770 01be B8        		.byte	0xb8
 771 01bf 3802 0000 		.4byte	0x238
 772 01c3 02        		.byte	0x2
 773 01c4 23        		.byte	0x23
 774 01c5 18        		.uleb128 0x18
 775 01c6 06        		.uleb128 0x6
 776 01c7 0000 0000 		.4byte	.LASF34
 777 01cb 06        		.byte	0x6
 778 01cc BC        		.byte	0xbc
 779 01cd BC00 0000 		.4byte	0xbc
 780 01d1 02        		.byte	0x2
 781 01d2 23        		.byte	0x23
 782 01d3 1C        		.uleb128 0x1c
 783 01d4 06        		.uleb128 0x6
 784 01d5 0000 0000 		.4byte	.LASF35
 785 01d9 06        		.byte	0x6
 786 01da C2        		.byte	0xc2
 787 01db C700 0000 		.4byte	0xc7
 788 01df 02        		.byte	0x2
 789 01e0 23        		.byte	0x23
 790 01e1 1E        		.uleb128 0x1e
 791 01e2 06        		.uleb128 0x6
 792 01e3 0000 0000 		.4byte	.LASF36
 793 01e7 06        		.byte	0x6
 794 01e8 C9        		.byte	0xc9
 795 01e9 8704 0000 		.4byte	0x487
 796 01ed 02        		.byte	0x2
GAS LISTING /tmp/ccr9DWhv.s 			page 15


 797 01ee 23        		.byte	0x23
 798 01ef 20        		.uleb128 0x20
 799 01f0 06        		.uleb128 0x6
 800 01f1 0000 0000 		.4byte	.LASF37
 801 01f5 06        		.byte	0x6
 802 01f6 CD        		.byte	0xcd
 803 01f7 B100 0000 		.4byte	0xb1
 804 01fb 02        		.byte	0x2
 805 01fc 23        		.byte	0x23
 806 01fd 22        		.uleb128 0x22
 807 01fe 06        		.uleb128 0x6
 808 01ff 0000 0000 		.4byte	.LASF38
 809 0203 06        		.byte	0x6
 810 0204 D3        		.byte	0xd3
 811 0205 7B02 0000 		.4byte	0x27b
 812 0209 02        		.byte	0x2
 813 020a 23        		.byte	0x23
 814 020b 24        		.uleb128 0x24
 815 020c 00        		.byte	0
 816 020d 08        		.uleb128 0x8
 817 020e 04        		.byte	0x4
 818 020f 05        		.byte	0x5
 819 0210 5A        		.byte	0x5a
 820 0211 3202 0000 		.4byte	0x232
 821 0215 06        		.uleb128 0x6
 822 0216 0000 0000 		.4byte	.LASF20
 823 021a 05        		.byte	0x5
 824 021b 5B        		.byte	0x5b
 825 021c 3202 0000 		.4byte	0x232
 826 0220 02        		.byte	0x2
 827 0221 23        		.byte	0x23
 828 0222 00        		.uleb128 0
 829 0223 06        		.uleb128 0x6
 830 0224 0000 0000 		.4byte	.LASF21
 831 0228 05        		.byte	0x5
 832 0229 5D        		.byte	0x5d
 833 022a 3202 0000 		.4byte	0x232
 834 022e 02        		.byte	0x2
 835 022f 23        		.byte	0x23
 836 0230 02        		.uleb128 0x2
 837 0231 00        		.byte	0
 838 0232 09        		.uleb128 0x9
 839 0233 02        		.byte	0x2
 840 0234 DD00 0000 		.4byte	0xdd
 841 0238 03        		.uleb128 0x3
 842 0239 0000 0000 		.4byte	.LASF39
 843 023d 05        		.byte	0x5
 844 023e 5F        		.byte	0x5f
 845 023f 0D02 0000 		.4byte	0x20d
 846 0243 08        		.uleb128 0x8
 847 0244 02        		.byte	0x2
 848 0245 05        		.byte	0x5
 849 0246 64        		.byte	0x64
 850 0247 5A02 0000 		.4byte	0x25a
 851 024b 06        		.uleb128 0x6
 852 024c 0000 0000 		.4byte	.LASF20
 853 0250 05        		.byte	0x5
GAS LISTING /tmp/ccr9DWhv.s 			page 16


 854 0251 66        		.byte	0x66
 855 0252 3202 0000 		.4byte	0x232
 856 0256 02        		.byte	0x2
 857 0257 23        		.byte	0x23
 858 0258 00        		.uleb128 0
 859 0259 00        		.byte	0
 860 025a 03        		.uleb128 0x3
 861 025b 0000 0000 		.4byte	.LASF40
 862 025f 05        		.byte	0x5
 863 0260 69        		.byte	0x69
 864 0261 4302 0000 		.4byte	0x243
 865 0265 03        		.uleb128 0x3
 866 0266 0000 0000 		.4byte	.LASF41
 867 026a 07        		.byte	0x7
 868 026b 4A        		.byte	0x4a
 869 026c 6C00 0000 		.4byte	0x6c
 870 0270 03        		.uleb128 0x3
 871 0271 0000 0000 		.4byte	.LASF42
 872 0275 07        		.byte	0x7
 873 0276 4F        		.byte	0x4f
 874 0277 7B02 0000 		.4byte	0x27b
 875 027b 0A        		.uleb128 0xa
 876 027c 02        		.byte	0x2
 877 027d 05        		.uleb128 0x5
 878 027e 0000 0000 		.4byte	.LASF43
 879 0282 12        		.byte	0x12
 880 0283 07        		.byte	0x7
 881 0284 64        		.byte	0x64
 882 0285 0103 0000 		.4byte	0x301
 883 0289 07        		.uleb128 0x7
 884 028a 7234 00   		.string	"r4"
 885 028d 07        		.byte	0x7
 886 028e 65        		.byte	0x65
 887 028f 7002 0000 		.4byte	0x270
 888 0293 02        		.byte	0x2
 889 0294 23        		.byte	0x23
 890 0295 00        		.uleb128 0
 891 0296 07        		.uleb128 0x7
 892 0297 7235 00   		.string	"r5"
 893 029a 07        		.byte	0x7
 894 029b 66        		.byte	0x66
 895 029c 7002 0000 		.4byte	0x270
 896 02a0 02        		.byte	0x2
 897 02a1 23        		.byte	0x23
 898 02a2 02        		.uleb128 0x2
 899 02a3 07        		.uleb128 0x7
 900 02a4 7236 00   		.string	"r6"
 901 02a7 07        		.byte	0x7
 902 02a8 67        		.byte	0x67
 903 02a9 7002 0000 		.4byte	0x270
 904 02ad 02        		.byte	0x2
 905 02ae 23        		.byte	0x23
 906 02af 04        		.uleb128 0x4
 907 02b0 07        		.uleb128 0x7
 908 02b1 7237 00   		.string	"r7"
 909 02b4 07        		.byte	0x7
 910 02b5 68        		.byte	0x68
GAS LISTING /tmp/ccr9DWhv.s 			page 17


 911 02b6 7002 0000 		.4byte	0x270
 912 02ba 02        		.byte	0x2
 913 02bb 23        		.byte	0x23
 914 02bc 06        		.uleb128 0x6
 915 02bd 07        		.uleb128 0x7
 916 02be 7238 00   		.string	"r8"
 917 02c1 07        		.byte	0x7
 918 02c2 69        		.byte	0x69
 919 02c3 7002 0000 		.4byte	0x270
 920 02c7 02        		.byte	0x2
 921 02c8 23        		.byte	0x23
 922 02c9 08        		.uleb128 0x8
 923 02ca 07        		.uleb128 0x7
 924 02cb 7239 00   		.string	"r9"
 925 02ce 07        		.byte	0x7
 926 02cf 6A        		.byte	0x6a
 927 02d0 7002 0000 		.4byte	0x270
 928 02d4 02        		.byte	0x2
 929 02d5 23        		.byte	0x23
 930 02d6 0A        		.uleb128 0xa
 931 02d7 07        		.uleb128 0x7
 932 02d8 7231 3000 		.string	"r10"
 933 02dc 07        		.byte	0x7
 934 02dd 6B        		.byte	0x6b
 935 02de 7002 0000 		.4byte	0x270
 936 02e2 02        		.byte	0x2
 937 02e3 23        		.byte	0x23
 938 02e4 0C        		.uleb128 0xc
 939 02e5 07        		.uleb128 0x7
 940 02e6 7231 3100 		.string	"r11"
 941 02ea 07        		.byte	0x7
 942 02eb 6C        		.byte	0x6c
 943 02ec 7002 0000 		.4byte	0x270
 944 02f0 02        		.byte	0x2
 945 02f1 23        		.byte	0x23
 946 02f2 0E        		.uleb128 0xe
 947 02f3 07        		.uleb128 0x7
 948 02f4 7063 00   		.string	"pc"
 949 02f7 07        		.byte	0x7
 950 02f8 6D        		.byte	0x6d
 951 02f9 7002 0000 		.4byte	0x270
 952 02fd 02        		.byte	0x2
 953 02fe 23        		.byte	0x23
 954 02ff 10        		.uleb128 0x10
 955 0300 00        		.byte	0
 956 0301 05        		.uleb128 0x5
 957 0302 0000 0000 		.4byte	.LASF44
 958 0306 02        		.byte	0x2
 959 0307 07        		.byte	0x7
 960 0308 75        		.byte	0x75
 961 0309 1B03 0000 		.4byte	0x31b
 962 030d 07        		.uleb128 0x7
 963 030e 7370 00   		.string	"sp"
 964 0311 07        		.byte	0x7
 965 0312 76        		.byte	0x76
 966 0313 1B03 0000 		.4byte	0x31b
 967 0317 02        		.byte	0x2
GAS LISTING /tmp/ccr9DWhv.s 			page 18


 968 0318 23        		.byte	0x23
 969 0319 00        		.uleb128 0
 970 031a 00        		.byte	0
 971 031b 09        		.uleb128 0x9
 972 031c 02        		.byte	0x2
 973 031d 7D02 0000 		.4byte	0x27d
 974 0321 0B        		.uleb128 0xb
 975 0322 D200 0000 		.4byte	0xd2
 976 0326 05        		.uleb128 0x5
 977 0327 0000 0000 		.4byte	.LASF45
 978 032b 08        		.byte	0x8
 979 032c 08        		.byte	0x8
 980 032d 25        		.byte	0x25
 981 032e 5D03 0000 		.4byte	0x35d
 982 0332 06        		.uleb128 0x6
 983 0333 0000 0000 		.4byte	.LASF46
 984 0337 08        		.byte	0x8
 985 0338 26        		.byte	0x26
 986 0339 3802 0000 		.4byte	0x238
 987 033d 02        		.byte	0x2
 988 033e 23        		.byte	0x23
 989 033f 00        		.uleb128 0
 990 0340 06        		.uleb128 0x6
 991 0341 0000 0000 		.4byte	.LASF47
 992 0345 08        		.byte	0x8
 993 0346 28        		.byte	0x28
 994 0347 3202 0000 		.4byte	0x232
 995 034b 02        		.byte	0x2
 996 034c 23        		.byte	0x23
 997 034d 04        		.uleb128 0x4
 998 034e 06        		.uleb128 0x6
 999 034f 0000 0000 		.4byte	.LASF48
 1000 0353 08        		.byte	0x8
 1001 0354 2A        		.byte	0x2a
 1002 0355 5D03 0000 		.4byte	0x35d
 1003 0359 02        		.byte	0x2
 1004 035a 23        		.byte	0x23
 1005 035b 06        		.uleb128 0x6
 1006 035c 00        		.byte	0
 1007 035d 09        		.uleb128 0x9
 1008 035e 02        		.byte	0x2
 1009 035f 2603 0000 		.4byte	0x326
 1010 0363 03        		.uleb128 0x3
 1011 0364 0000 0000 		.4byte	.LASF45
 1012 0368 08        		.byte	0x8
 1013 0369 2C        		.byte	0x2c
 1014 036a 2603 0000 		.4byte	0x326
 1015 036e 03        		.uleb128 0x3
 1016 036f 0000 0000 		.4byte	.LASF49
 1017 0373 09        		.byte	0x9
 1018 0374 25        		.byte	0x25
 1019 0375 7903 0000 		.4byte	0x379
 1020 0379 09        		.uleb128 0x9
 1021 037a 02        		.byte	0x2
 1022 037b 7F03 0000 		.4byte	0x37f
 1023 037f 0C        		.uleb128 0xc
 1024 0380 01        		.byte	0x1
GAS LISTING /tmp/ccr9DWhv.s 			page 19


 1025 0381 7B02 0000 		.4byte	0x27b
 1026 0385 8F03 0000 		.4byte	0x38f
 1027 0389 0D        		.uleb128 0xd
 1028 038a 2800 0000 		.4byte	0x28
 1029 038e 00        		.byte	0
 1030 038f 03        		.uleb128 0x3
 1031 0390 0000 0000 		.4byte	.LASF50
 1032 0394 0A        		.byte	0xa
 1033 0395 2D        		.byte	0x2d
 1034 0396 9A03 0000 		.4byte	0x39a
 1035 039a 05        		.uleb128 0x5
 1036 039b 0000 0000 		.4byte	.LASF51
 1037 039f 0E        		.byte	0xe
 1038 03a0 0A        		.byte	0xa
 1039 03a1 40        		.byte	0x40
 1040 03a2 D103 0000 		.4byte	0x3d1
 1041 03a6 06        		.uleb128 0x6
 1042 03a7 0000 0000 		.4byte	.LASF52
 1043 03ab 0A        		.byte	0xa
 1044 03ac 41        		.byte	0x41
 1045 03ad 6E03 0000 		.4byte	0x36e
 1046 03b1 02        		.byte	0x2
 1047 03b2 23        		.byte	0x23
 1048 03b3 00        		.uleb128 0
 1049 03b4 06        		.uleb128 0x6
 1050 03b5 0000 0000 		.4byte	.LASF53
 1051 03b9 0A        		.byte	0xa
 1052 03ba 43        		.byte	0x43
 1053 03bb F003 0000 		.4byte	0x3f0
 1054 03bf 02        		.byte	0x2
 1055 03c0 23        		.byte	0x23
 1056 03c1 02        		.uleb128 0x2
 1057 03c2 06        		.uleb128 0x6
 1058 03c3 0000 0000 		.4byte	.LASF54
 1059 03c7 0A        		.byte	0xa
 1060 03c8 45        		.byte	0x45
 1061 03c9 6303 0000 		.4byte	0x363
 1062 03cd 02        		.byte	0x2
 1063 03ce 23        		.byte	0x23
 1064 03cf 06        		.uleb128 0x6
 1065 03d0 00        		.byte	0
 1066 03d1 0E        		.uleb128 0xe
 1067 03d2 02        		.byte	0x2
 1068 03d3 0A        		.byte	0xa
 1069 03d4 35        		.byte	0x35
 1070 03d5 F003 0000 		.4byte	0x3f0
 1071 03d9 0F        		.uleb128 0xf
 1072 03da 0000 0000 		.4byte	.LASF55
 1073 03de 0A        		.byte	0xa
 1074 03df 36        		.byte	0x36
 1075 03e0 1104 0000 		.4byte	0x411
 1076 03e4 0F        		.uleb128 0xf
 1077 03e5 0000 0000 		.4byte	.LASF56
 1078 03e9 0A        		.byte	0xa
 1079 03ea 37        		.byte	0x37
 1080 03eb 1704 0000 		.4byte	0x417
 1081 03ef 00        		.byte	0
GAS LISTING /tmp/ccr9DWhv.s 			page 20


 1082 03f0 10        		.uleb128 0x10
 1083 03f1 0000 0000 		.4byte	.LASF74
 1084 03f5 04        		.byte	0x4
 1085 03f6 0A        		.byte	0xa
 1086 03f7 32        		.byte	0x32
 1087 03f8 1104 0000 		.4byte	0x411
 1088 03fc 0F        		.uleb128 0xf
 1089 03fd 0000 0000 		.4byte	.LASF57
 1090 0401 0A        		.byte	0xa
 1091 0402 33        		.byte	0x33
 1092 0403 6502 0000 		.4byte	0x265
 1093 0407 11        		.uleb128 0x11
 1094 0408 6800      		.string	"h"
 1095 040a 0A        		.byte	0xa
 1096 040b 3A        		.byte	0x3a
 1097 040c 1D04 0000 		.4byte	0x41d
 1098 0410 00        		.byte	0
 1099 0411 09        		.uleb128 0x9
 1100 0412 02        		.byte	0x2
 1101 0413 F003 0000 		.4byte	0x3f0
 1102 0417 09        		.uleb128 0x9
 1103 0418 02        		.byte	0x2
 1104 0419 8F03 0000 		.4byte	0x38f
 1105 041d 08        		.uleb128 0x8
 1106 041e 04        		.byte	0x4
 1107 041f 0A        		.byte	0xa
 1108 0420 34        		.byte	0x34
 1109 0421 4004 0000 		.4byte	0x440
 1110 0425 07        		.uleb128 0x7
 1111 0426 7500      		.string	"u"
 1112 0428 0A        		.byte	0xa
 1113 0429 38        		.byte	0x38
 1114 042a D103 0000 		.4byte	0x3d1
 1115 042e 02        		.byte	0x2
 1116 042f 23        		.byte	0x23
 1117 0430 00        		.uleb128 0
 1118 0431 06        		.uleb128 0x6
 1119 0432 0000 0000 		.4byte	.LASF58
 1120 0436 0A        		.byte	0xa
 1121 0437 39        		.byte	0x39
 1122 0438 2800 0000 		.4byte	0x28
 1123 043c 02        		.byte	0x2
 1124 043d 23        		.byte	0x23
 1125 043e 02        		.uleb128 0x2
 1126 043f 00        		.byte	0
 1127 0440 0E        		.uleb128 0xe
 1128 0441 02        		.byte	0x2
 1129 0442 06        		.byte	0x6
 1130 0443 8F        		.byte	0x8f
 1131 0444 7504 0000 		.4byte	0x475
 1132 0448 0F        		.uleb128 0xf
 1133 0449 0000 0000 		.4byte	.LASF59
 1134 044d 06        		.byte	0x6
 1135 044e 96        		.byte	0x96
 1136 044f BC00 0000 		.4byte	0xbc
 1137 0453 0F        		.uleb128 0xf
 1138 0454 0000 0000 		.4byte	.LASF60
GAS LISTING /tmp/ccr9DWhv.s 			page 21


 1139 0458 06        		.byte	0x6
 1140 0459 9D        		.byte	0x9d
 1141 045a BC00 0000 		.4byte	0xbc
 1142 045e 0F        		.uleb128 0xf
 1143 045f 0000 0000 		.4byte	.LASF61
 1144 0463 06        		.byte	0x6
 1145 0464 A4        		.byte	0xa4
 1146 0465 7B02 0000 		.4byte	0x27b
 1147 0469 0F        		.uleb128 0xf
 1148 046a 0000 0000 		.4byte	.LASF62
 1149 046e 06        		.byte	0x6
 1150 046f AB        		.byte	0xab
 1151 0470 C700 0000 		.4byte	0xc7
 1152 0474 00        		.byte	0
 1153 0475 09        		.uleb128 0x9
 1154 0476 02        		.byte	0x2
 1155 0477 7B04 0000 		.4byte	0x47b
 1156 047b 12        		.uleb128 0x12
 1157 047c 8004 0000 		.4byte	0x480
 1158 0480 02        		.uleb128 0x2
 1159 0481 01        		.byte	0x1
 1160 0482 06        		.byte	0x6
 1161 0483 0000 0000 		.4byte	.LASF63
 1162 0487 09        		.uleb128 0x9
 1163 0488 02        		.byte	0x2
 1164 0489 6303 0000 		.4byte	0x363
 1165 048d 13        		.uleb128 0x13
 1166 048e 01        		.byte	0x1
 1167 048f 0000 0000 		.4byte	.LASF75
 1168 0493 01        		.byte	0x1
 1169 0494 44        		.byte	0x44
 1170 0495 01        		.byte	0x1
 1171 0496 0000      		.2byte	.LFB7
 1172 0498 0000      		.2byte	.LFE7
 1173 049a 02        		.byte	0x2
 1174 049b 71        		.byte	0x71
 1175 049c 02        		.sleb128 2
 1176 049d 14        		.uleb128 0x14
 1177 049e 01        		.byte	0x1
 1178 049f 0000 0000 		.4byte	.LASF65
 1179 04a3 01        		.byte	0x1
 1180 04a4 5C        		.byte	0x5c
 1181 04a5 01        		.byte	0x1
 1182 04a6 0000      		.2byte	.LFB8
 1183 04a8 0000      		.2byte	.LFE8
 1184 04aa 02        		.byte	0x2
 1185 04ab 71        		.byte	0x71
 1186 04ac 02        		.sleb128 2
 1187 04ad ED04 0000 		.4byte	0x4ed
 1188 04b1 15        		.uleb128 0x15
 1189 04b2 0000 0000 		.4byte	.LASF64
 1190 04b6 01        		.byte	0x1
 1191 04b7 5C        		.byte	0x5c
 1192 04b8 1704 0000 		.4byte	0x417
 1193 04bc 0000 0000 		.4byte	.LLST0
 1194 04c0 16        		.uleb128 0x16
 1195 04c1 6275 6600 		.string	"buf"
GAS LISTING /tmp/ccr9DWhv.s 			page 22


 1196 04c5 01        		.byte	0x1
 1197 04c6 5C        		.byte	0x5c
 1198 04c7 7B02 0000 		.4byte	0x27b
 1199 04cb 0000 0000 		.4byte	.LLST1
 1200 04cf 15        		.uleb128 0x15
 1201 04d0 0000 0000 		.4byte	.LASF58
 1202 04d4 01        		.byte	0x1
 1203 04d5 5C        		.byte	0x5c
 1204 04d6 2800 0000 		.4byte	0x28
 1205 04da 0000 0000 		.4byte	.LLST2
 1206 04de 17        		.uleb128 0x17
 1207 04df 6870 00   		.string	"hp"
 1208 04e2 01        		.byte	0x1
 1209 04e3 5D        		.byte	0x5d
 1210 04e4 1104 0000 		.4byte	0x411
 1211 04e8 0000 0000 		.4byte	.LLST3
 1212 04ec 00        		.byte	0
 1213 04ed 18        		.uleb128 0x18
 1214 04ee 01        		.byte	0x1
 1215 04ef 0000 0000 		.4byte	.LASF67
 1216 04f3 01        		.byte	0x1
 1217 04f4 7D        		.byte	0x7d
 1218 04f5 01        		.byte	0x1
 1219 04f6 7B02 0000 		.4byte	0x27b
 1220 04fa 0000      		.2byte	.LFB9
 1221 04fc 0000      		.2byte	.LFE9
 1222 04fe 0000 0000 		.4byte	.LLST4
 1223 0502 4F05 0000 		.4byte	0x54f
 1224 0506 15        		.uleb128 0x15
 1225 0507 0000 0000 		.4byte	.LASF64
 1226 050b 01        		.byte	0x1
 1227 050c 7D        		.byte	0x7d
 1228 050d 1704 0000 		.4byte	0x417
 1229 0511 0000 0000 		.4byte	.LLST5
 1230 0515 15        		.uleb128 0x15
 1231 0516 0000 0000 		.4byte	.LASF58
 1232 051a 01        		.byte	0x1
 1233 051b 7D        		.byte	0x7d
 1234 051c 2800 0000 		.4byte	0x28
 1235 0520 0000 0000 		.4byte	.LLST6
 1236 0524 17        		.uleb128 0x17
 1237 0525 7170 00   		.string	"qp"
 1238 0528 01        		.byte	0x1
 1239 0529 7E        		.byte	0x7e
 1240 052a 1104 0000 		.4byte	0x411
 1241 052e 0000 0000 		.4byte	.LLST7
 1242 0532 17        		.uleb128 0x17
 1243 0533 6870 00   		.string	"hp"
 1244 0536 01        		.byte	0x1
 1245 0537 7E        		.byte	0x7e
 1246 0538 1104 0000 		.4byte	0x411
 1247 053c 0000 0000 		.4byte	.LLST8
 1248 0540 17        		.uleb128 0x17
 1249 0541 6670 00   		.string	"fp"
 1250 0544 01        		.byte	0x1
 1251 0545 7E        		.byte	0x7e
 1252 0546 1104 0000 		.4byte	0x411
GAS LISTING /tmp/ccr9DWhv.s 			page 23


 1253 054a 0000 0000 		.4byte	.LLST9
 1254 054e 00        		.byte	0
 1255 054f 19        		.uleb128 0x19
 1256 0550 01        		.byte	0x1
 1257 0551 0000 0000 		.4byte	.LASF66
 1258 0555 01        		.byte	0x1
 1259 0556 BB        		.byte	0xbb
 1260 0557 01        		.byte	0x1
 1261 0558 0000      		.2byte	.LFB10
 1262 055a 0000      		.2byte	.LFE10
 1263 055c 0000 0000 		.4byte	.LLST10
 1264 0560 9D05 0000 		.4byte	0x59d
 1265 0564 16        		.uleb128 0x16
 1266 0565 7000      		.string	"p"
 1267 0567 01        		.byte	0x1
 1268 0568 BB        		.byte	0xbb
 1269 0569 7B02 0000 		.4byte	0x27b
 1270 056d 0000 0000 		.4byte	.LLST11
 1271 0571 17        		.uleb128 0x17
 1272 0572 7170 00   		.string	"qp"
 1273 0575 01        		.byte	0x1
 1274 0576 BC        		.byte	0xbc
 1275 0577 1104 0000 		.4byte	0x411
 1276 057b 0000 0000 		.4byte	.LLST12
 1277 057f 17        		.uleb128 0x17
 1278 0580 6870 00   		.string	"hp"
 1279 0583 01        		.byte	0x1
 1280 0584 BC        		.byte	0xbc
 1281 0585 1104 0000 		.4byte	0x411
 1282 0589 0000 0000 		.4byte	.LLST13
 1283 058d 1A        		.uleb128 0x1a
 1284 058e 0000 0000 		.4byte	.LASF64
 1285 0592 01        		.byte	0x1
 1286 0593 BD        		.byte	0xbd
 1287 0594 1704 0000 		.4byte	0x417
 1288 0598 0000 0000 		.4byte	.LLST14
 1289 059c 00        		.byte	0
 1290 059d 18        		.uleb128 0x18
 1291 059e 01        		.byte	0x1
 1292 059f 0000 0000 		.4byte	.LASF68
 1293 05a3 01        		.byte	0x1
 1294 05a4 F3        		.byte	0xf3
 1295 05a5 01        		.byte	0x1
 1296 05a6 2800 0000 		.4byte	0x28
 1297 05aa 0000      		.2byte	.LFB11
 1298 05ac 0000      		.2byte	.LFE11
 1299 05ae 0000 0000 		.4byte	.LLST15
 1300 05b2 FE05 0000 		.4byte	0x5fe
 1301 05b6 15        		.uleb128 0x15
 1302 05b7 0000 0000 		.4byte	.LASF64
 1303 05bb 01        		.byte	0x1
 1304 05bc F3        		.byte	0xf3
 1305 05bd 1704 0000 		.4byte	0x417
 1306 05c1 0000 0000 		.4byte	.LLST16
 1307 05c5 15        		.uleb128 0x15
 1308 05c6 0000 0000 		.4byte	.LASF69
 1309 05ca 01        		.byte	0x1
GAS LISTING /tmp/ccr9DWhv.s 			page 24


 1310 05cb F3        		.byte	0xf3
 1311 05cc FE05 0000 		.4byte	0x5fe
 1312 05d0 0000 0000 		.4byte	.LLST17
 1313 05d4 17        		.uleb128 0x17
 1314 05d5 7170 00   		.string	"qp"
 1315 05d8 01        		.byte	0x1
 1316 05d9 F4        		.byte	0xf4
 1317 05da 1104 0000 		.4byte	0x411
 1318 05de 0000 0000 		.4byte	.LLST18
 1319 05e2 17        		.uleb128 0x17
 1320 05e3 6E00      		.string	"n"
 1321 05e5 01        		.byte	0x1
 1322 05e6 F5        		.byte	0xf5
 1323 05e7 2800 0000 		.4byte	0x28
 1324 05eb 0000 0000 		.4byte	.LLST19
 1325 05ef 17        		.uleb128 0x17
 1326 05f0 737A 00   		.string	"sz"
 1327 05f3 01        		.byte	0x1
 1328 05f4 F5        		.byte	0xf5
 1329 05f5 2800 0000 		.4byte	0x28
 1330 05f9 0000 0000 		.4byte	.LLST20
 1331 05fd 00        		.byte	0
 1332 05fe 09        		.uleb128 0x9
 1333 05ff 02        		.byte	0x2
 1334 0600 2800 0000 		.4byte	0x28
 1335 0604 1B        		.uleb128 0x1b
 1336 0605 0000 0000 		.4byte	.LASF70
 1337 0609 01        		.byte	0x1
 1338 060a 3D        		.byte	0x3d
 1339 060b 8F03 0000 		.4byte	0x38f
 1340 060f 03        		.byte	0x3
 1341 0610 03        		.byte	0x3
 1342 0611 0000      		.2byte	default_heap
 1343 0613 00        		.byte	0
 1344               		.section	.debug_abbrev,"",@progbits
 1345               	.Ldebug_abbrev0:
 1346 0000 01        		.uleb128 0x1
 1347 0001 11        		.uleb128 0x11
 1348 0002 01        		.byte	0x1
 1349 0003 25        		.uleb128 0x25
 1350 0004 0E        		.uleb128 0xe
 1351 0005 13        		.uleb128 0x13
 1352 0006 0B        		.uleb128 0xb
 1353 0007 03        		.uleb128 0x3
 1354 0008 0E        		.uleb128 0xe
 1355 0009 1B        		.uleb128 0x1b
 1356 000a 0E        		.uleb128 0xe
 1357 000b 11        		.uleb128 0x11
 1358 000c 01        		.uleb128 0x1
 1359 000d 12        		.uleb128 0x12
 1360 000e 01        		.uleb128 0x1
 1361 000f 10        		.uleb128 0x10
 1362 0010 06        		.uleb128 0x6
 1363 0011 00        		.byte	0
 1364 0012 00        		.byte	0
 1365 0013 02        		.uleb128 0x2
 1366 0014 24        		.uleb128 0x24
GAS LISTING /tmp/ccr9DWhv.s 			page 25


 1367 0015 00        		.byte	0
 1368 0016 0B        		.uleb128 0xb
 1369 0017 0B        		.uleb128 0xb
 1370 0018 3E        		.uleb128 0x3e
 1371 0019 0B        		.uleb128 0xb
 1372 001a 03        		.uleb128 0x3
 1373 001b 0E        		.uleb128 0xe
 1374 001c 00        		.byte	0
 1375 001d 00        		.byte	0
 1376 001e 03        		.uleb128 0x3
 1377 001f 16        		.uleb128 0x16
 1378 0020 00        		.byte	0
 1379 0021 03        		.uleb128 0x3
 1380 0022 0E        		.uleb128 0xe
 1381 0023 3A        		.uleb128 0x3a
 1382 0024 0B        		.uleb128 0xb
 1383 0025 3B        		.uleb128 0x3b
 1384 0026 0B        		.uleb128 0xb
 1385 0027 49        		.uleb128 0x49
 1386 0028 13        		.uleb128 0x13
 1387 0029 00        		.byte	0
 1388 002a 00        		.byte	0
 1389 002b 04        		.uleb128 0x4
 1390 002c 24        		.uleb128 0x24
 1391 002d 00        		.byte	0
 1392 002e 0B        		.uleb128 0xb
 1393 002f 0B        		.uleb128 0xb
 1394 0030 3E        		.uleb128 0x3e
 1395 0031 0B        		.uleb128 0xb
 1396 0032 03        		.uleb128 0x3
 1397 0033 08        		.uleb128 0x8
 1398 0034 00        		.byte	0
 1399 0035 00        		.byte	0
 1400 0036 05        		.uleb128 0x5
 1401 0037 13        		.uleb128 0x13
 1402 0038 01        		.byte	0x1
 1403 0039 03        		.uleb128 0x3
 1404 003a 0E        		.uleb128 0xe
 1405 003b 0B        		.uleb128 0xb
 1406 003c 0B        		.uleb128 0xb
 1407 003d 3A        		.uleb128 0x3a
 1408 003e 0B        		.uleb128 0xb
 1409 003f 3B        		.uleb128 0x3b
 1410 0040 0B        		.uleb128 0xb
 1411 0041 01        		.uleb128 0x1
 1412 0042 13        		.uleb128 0x13
 1413 0043 00        		.byte	0
 1414 0044 00        		.byte	0
 1415 0045 06        		.uleb128 0x6
 1416 0046 0D        		.uleb128 0xd
 1417 0047 00        		.byte	0
 1418 0048 03        		.uleb128 0x3
 1419 0049 0E        		.uleb128 0xe
 1420 004a 3A        		.uleb128 0x3a
 1421 004b 0B        		.uleb128 0xb
 1422 004c 3B        		.uleb128 0x3b
 1423 004d 0B        		.uleb128 0xb
GAS LISTING /tmp/ccr9DWhv.s 			page 26


 1424 004e 49        		.uleb128 0x49
 1425 004f 13        		.uleb128 0x13
 1426 0050 38        		.uleb128 0x38
 1427 0051 0A        		.uleb128 0xa
 1428 0052 00        		.byte	0
 1429 0053 00        		.byte	0
 1430 0054 07        		.uleb128 0x7
 1431 0055 0D        		.uleb128 0xd
 1432 0056 00        		.byte	0
 1433 0057 03        		.uleb128 0x3
 1434 0058 08        		.uleb128 0x8
 1435 0059 3A        		.uleb128 0x3a
 1436 005a 0B        		.uleb128 0xb
 1437 005b 3B        		.uleb128 0x3b
 1438 005c 0B        		.uleb128 0xb
 1439 005d 49        		.uleb128 0x49
 1440 005e 13        		.uleb128 0x13
 1441 005f 38        		.uleb128 0x38
 1442 0060 0A        		.uleb128 0xa
 1443 0061 00        		.byte	0
 1444 0062 00        		.byte	0
 1445 0063 08        		.uleb128 0x8
 1446 0064 13        		.uleb128 0x13
 1447 0065 01        		.byte	0x1
 1448 0066 0B        		.uleb128 0xb
 1449 0067 0B        		.uleb128 0xb
 1450 0068 3A        		.uleb128 0x3a
 1451 0069 0B        		.uleb128 0xb
 1452 006a 3B        		.uleb128 0x3b
 1453 006b 0B        		.uleb128 0xb
 1454 006c 01        		.uleb128 0x1
 1455 006d 13        		.uleb128 0x13
 1456 006e 00        		.byte	0
 1457 006f 00        		.byte	0
 1458 0070 09        		.uleb128 0x9
 1459 0071 0F        		.uleb128 0xf
 1460 0072 00        		.byte	0
 1461 0073 0B        		.uleb128 0xb
 1462 0074 0B        		.uleb128 0xb
 1463 0075 49        		.uleb128 0x49
 1464 0076 13        		.uleb128 0x13
 1465 0077 00        		.byte	0
 1466 0078 00        		.byte	0
 1467 0079 0A        		.uleb128 0xa
 1468 007a 0F        		.uleb128 0xf
 1469 007b 00        		.byte	0
 1470 007c 0B        		.uleb128 0xb
 1471 007d 0B        		.uleb128 0xb
 1472 007e 00        		.byte	0
 1473 007f 00        		.byte	0
 1474 0080 0B        		.uleb128 0xb
 1475 0081 35        		.uleb128 0x35
 1476 0082 00        		.byte	0
 1477 0083 49        		.uleb128 0x49
 1478 0084 13        		.uleb128 0x13
 1479 0085 00        		.byte	0
 1480 0086 00        		.byte	0
GAS LISTING /tmp/ccr9DWhv.s 			page 27


 1481 0087 0C        		.uleb128 0xc
 1482 0088 15        		.uleb128 0x15
 1483 0089 01        		.byte	0x1
 1484 008a 27        		.uleb128 0x27
 1485 008b 0C        		.uleb128 0xc
 1486 008c 49        		.uleb128 0x49
 1487 008d 13        		.uleb128 0x13
 1488 008e 01        		.uleb128 0x1
 1489 008f 13        		.uleb128 0x13
 1490 0090 00        		.byte	0
 1491 0091 00        		.byte	0
 1492 0092 0D        		.uleb128 0xd
 1493 0093 05        		.uleb128 0x5
 1494 0094 00        		.byte	0
 1495 0095 49        		.uleb128 0x49
 1496 0096 13        		.uleb128 0x13
 1497 0097 00        		.byte	0
 1498 0098 00        		.byte	0
 1499 0099 0E        		.uleb128 0xe
 1500 009a 17        		.uleb128 0x17
 1501 009b 01        		.byte	0x1
 1502 009c 0B        		.uleb128 0xb
 1503 009d 0B        		.uleb128 0xb
 1504 009e 3A        		.uleb128 0x3a
 1505 009f 0B        		.uleb128 0xb
 1506 00a0 3B        		.uleb128 0x3b
 1507 00a1 0B        		.uleb128 0xb
 1508 00a2 01        		.uleb128 0x1
 1509 00a3 13        		.uleb128 0x13
 1510 00a4 00        		.byte	0
 1511 00a5 00        		.byte	0
 1512 00a6 0F        		.uleb128 0xf
 1513 00a7 0D        		.uleb128 0xd
 1514 00a8 00        		.byte	0
 1515 00a9 03        		.uleb128 0x3
 1516 00aa 0E        		.uleb128 0xe
 1517 00ab 3A        		.uleb128 0x3a
 1518 00ac 0B        		.uleb128 0xb
 1519 00ad 3B        		.uleb128 0x3b
 1520 00ae 0B        		.uleb128 0xb
 1521 00af 49        		.uleb128 0x49
 1522 00b0 13        		.uleb128 0x13
 1523 00b1 00        		.byte	0
 1524 00b2 00        		.byte	0
 1525 00b3 10        		.uleb128 0x10
 1526 00b4 17        		.uleb128 0x17
 1527 00b5 01        		.byte	0x1
 1528 00b6 03        		.uleb128 0x3
 1529 00b7 0E        		.uleb128 0xe
 1530 00b8 0B        		.uleb128 0xb
 1531 00b9 0B        		.uleb128 0xb
 1532 00ba 3A        		.uleb128 0x3a
 1533 00bb 0B        		.uleb128 0xb
 1534 00bc 3B        		.uleb128 0x3b
 1535 00bd 0B        		.uleb128 0xb
 1536 00be 01        		.uleb128 0x1
 1537 00bf 13        		.uleb128 0x13
GAS LISTING /tmp/ccr9DWhv.s 			page 28


 1538 00c0 00        		.byte	0
 1539 00c1 00        		.byte	0
 1540 00c2 11        		.uleb128 0x11
 1541 00c3 0D        		.uleb128 0xd
 1542 00c4 00        		.byte	0
 1543 00c5 03        		.uleb128 0x3
 1544 00c6 08        		.uleb128 0x8
 1545 00c7 3A        		.uleb128 0x3a
 1546 00c8 0B        		.uleb128 0xb
 1547 00c9 3B        		.uleb128 0x3b
 1548 00ca 0B        		.uleb128 0xb
 1549 00cb 49        		.uleb128 0x49
 1550 00cc 13        		.uleb128 0x13
 1551 00cd 00        		.byte	0
 1552 00ce 00        		.byte	0
 1553 00cf 12        		.uleb128 0x12
 1554 00d0 26        		.uleb128 0x26
 1555 00d1 00        		.byte	0
 1556 00d2 49        		.uleb128 0x49
 1557 00d3 13        		.uleb128 0x13
 1558 00d4 00        		.byte	0
 1559 00d5 00        		.byte	0
 1560 00d6 13        		.uleb128 0x13
 1561 00d7 2E        		.uleb128 0x2e
 1562 00d8 00        		.byte	0
 1563 00d9 3F        		.uleb128 0x3f
 1564 00da 0C        		.uleb128 0xc
 1565 00db 03        		.uleb128 0x3
 1566 00dc 0E        		.uleb128 0xe
 1567 00dd 3A        		.uleb128 0x3a
 1568 00de 0B        		.uleb128 0xb
 1569 00df 3B        		.uleb128 0x3b
 1570 00e0 0B        		.uleb128 0xb
 1571 00e1 27        		.uleb128 0x27
 1572 00e2 0C        		.uleb128 0xc
 1573 00e3 11        		.uleb128 0x11
 1574 00e4 01        		.uleb128 0x1
 1575 00e5 12        		.uleb128 0x12
 1576 00e6 01        		.uleb128 0x1
 1577 00e7 40        		.uleb128 0x40
 1578 00e8 0A        		.uleb128 0xa
 1579 00e9 00        		.byte	0
 1580 00ea 00        		.byte	0
 1581 00eb 14        		.uleb128 0x14
 1582 00ec 2E        		.uleb128 0x2e
 1583 00ed 01        		.byte	0x1
 1584 00ee 3F        		.uleb128 0x3f
 1585 00ef 0C        		.uleb128 0xc
 1586 00f0 03        		.uleb128 0x3
 1587 00f1 0E        		.uleb128 0xe
 1588 00f2 3A        		.uleb128 0x3a
 1589 00f3 0B        		.uleb128 0xb
 1590 00f4 3B        		.uleb128 0x3b
 1591 00f5 0B        		.uleb128 0xb
 1592 00f6 27        		.uleb128 0x27
 1593 00f7 0C        		.uleb128 0xc
 1594 00f8 11        		.uleb128 0x11
GAS LISTING /tmp/ccr9DWhv.s 			page 29


 1595 00f9 01        		.uleb128 0x1
 1596 00fa 12        		.uleb128 0x12
 1597 00fb 01        		.uleb128 0x1
 1598 00fc 40        		.uleb128 0x40
 1599 00fd 0A        		.uleb128 0xa
 1600 00fe 01        		.uleb128 0x1
 1601 00ff 13        		.uleb128 0x13
 1602 0100 00        		.byte	0
 1603 0101 00        		.byte	0
 1604 0102 15        		.uleb128 0x15
 1605 0103 05        		.uleb128 0x5
 1606 0104 00        		.byte	0
 1607 0105 03        		.uleb128 0x3
 1608 0106 0E        		.uleb128 0xe
 1609 0107 3A        		.uleb128 0x3a
 1610 0108 0B        		.uleb128 0xb
 1611 0109 3B        		.uleb128 0x3b
 1612 010a 0B        		.uleb128 0xb
 1613 010b 49        		.uleb128 0x49
 1614 010c 13        		.uleb128 0x13
 1615 010d 02        		.uleb128 0x2
 1616 010e 06        		.uleb128 0x6
 1617 010f 00        		.byte	0
 1618 0110 00        		.byte	0
 1619 0111 16        		.uleb128 0x16
 1620 0112 05        		.uleb128 0x5
 1621 0113 00        		.byte	0
 1622 0114 03        		.uleb128 0x3
 1623 0115 08        		.uleb128 0x8
 1624 0116 3A        		.uleb128 0x3a
 1625 0117 0B        		.uleb128 0xb
 1626 0118 3B        		.uleb128 0x3b
 1627 0119 0B        		.uleb128 0xb
 1628 011a 49        		.uleb128 0x49
 1629 011b 13        		.uleb128 0x13
 1630 011c 02        		.uleb128 0x2
 1631 011d 06        		.uleb128 0x6
 1632 011e 00        		.byte	0
 1633 011f 00        		.byte	0
 1634 0120 17        		.uleb128 0x17
 1635 0121 34        		.uleb128 0x34
 1636 0122 00        		.byte	0
 1637 0123 03        		.uleb128 0x3
 1638 0124 08        		.uleb128 0x8
 1639 0125 3A        		.uleb128 0x3a
 1640 0126 0B        		.uleb128 0xb
 1641 0127 3B        		.uleb128 0x3b
 1642 0128 0B        		.uleb128 0xb
 1643 0129 49        		.uleb128 0x49
 1644 012a 13        		.uleb128 0x13
 1645 012b 02        		.uleb128 0x2
 1646 012c 06        		.uleb128 0x6
 1647 012d 00        		.byte	0
 1648 012e 00        		.byte	0
 1649 012f 18        		.uleb128 0x18
 1650 0130 2E        		.uleb128 0x2e
 1651 0131 01        		.byte	0x1
GAS LISTING /tmp/ccr9DWhv.s 			page 30


 1652 0132 3F        		.uleb128 0x3f
 1653 0133 0C        		.uleb128 0xc
 1654 0134 03        		.uleb128 0x3
 1655 0135 0E        		.uleb128 0xe
 1656 0136 3A        		.uleb128 0x3a
 1657 0137 0B        		.uleb128 0xb
 1658 0138 3B        		.uleb128 0x3b
 1659 0139 0B        		.uleb128 0xb
 1660 013a 27        		.uleb128 0x27
 1661 013b 0C        		.uleb128 0xc
 1662 013c 49        		.uleb128 0x49
 1663 013d 13        		.uleb128 0x13
 1664 013e 11        		.uleb128 0x11
 1665 013f 01        		.uleb128 0x1
 1666 0140 12        		.uleb128 0x12
 1667 0141 01        		.uleb128 0x1
 1668 0142 40        		.uleb128 0x40
 1669 0143 06        		.uleb128 0x6
 1670 0144 01        		.uleb128 0x1
 1671 0145 13        		.uleb128 0x13
 1672 0146 00        		.byte	0
 1673 0147 00        		.byte	0
 1674 0148 19        		.uleb128 0x19
 1675 0149 2E        		.uleb128 0x2e
 1676 014a 01        		.byte	0x1
 1677 014b 3F        		.uleb128 0x3f
 1678 014c 0C        		.uleb128 0xc
 1679 014d 03        		.uleb128 0x3
 1680 014e 0E        		.uleb128 0xe
 1681 014f 3A        		.uleb128 0x3a
 1682 0150 0B        		.uleb128 0xb
 1683 0151 3B        		.uleb128 0x3b
 1684 0152 0B        		.uleb128 0xb
 1685 0153 27        		.uleb128 0x27
 1686 0154 0C        		.uleb128 0xc
 1687 0155 11        		.uleb128 0x11
 1688 0156 01        		.uleb128 0x1
 1689 0157 12        		.uleb128 0x12
 1690 0158 01        		.uleb128 0x1
 1691 0159 40        		.uleb128 0x40
 1692 015a 06        		.uleb128 0x6
 1693 015b 01        		.uleb128 0x1
 1694 015c 13        		.uleb128 0x13
 1695 015d 00        		.byte	0
 1696 015e 00        		.byte	0
 1697 015f 1A        		.uleb128 0x1a
 1698 0160 34        		.uleb128 0x34
 1699 0161 00        		.byte	0
 1700 0162 03        		.uleb128 0x3
 1701 0163 0E        		.uleb128 0xe
 1702 0164 3A        		.uleb128 0x3a
 1703 0165 0B        		.uleb128 0xb
 1704 0166 3B        		.uleb128 0x3b
 1705 0167 0B        		.uleb128 0xb
 1706 0168 49        		.uleb128 0x49
 1707 0169 13        		.uleb128 0x13
 1708 016a 02        		.uleb128 0x2
GAS LISTING /tmp/ccr9DWhv.s 			page 31


 1709 016b 06        		.uleb128 0x6
 1710 016c 00        		.byte	0
 1711 016d 00        		.byte	0
 1712 016e 1B        		.uleb128 0x1b
 1713 016f 34        		.uleb128 0x34
 1714 0170 00        		.byte	0
 1715 0171 03        		.uleb128 0x3
 1716 0172 0E        		.uleb128 0xe
 1717 0173 3A        		.uleb128 0x3a
 1718 0174 0B        		.uleb128 0xb
 1719 0175 3B        		.uleb128 0x3b
 1720 0176 0B        		.uleb128 0xb
 1721 0177 49        		.uleb128 0x49
 1722 0178 13        		.uleb128 0x13
 1723 0179 02        		.uleb128 0x2
 1724 017a 0A        		.uleb128 0xa
 1725 017b 00        		.byte	0
 1726 017c 00        		.byte	0
 1727 017d 00        		.byte	0
 1728               		.section	.debug_loc,"",@progbits
 1729               	.Ldebug_loc0:
 1730               	.LLST0:
 1731 0000 1C00      		.2byte	.LVL0-.Ltext0
 1732 0002 3600      		.2byte	.LVL3-.Ltext0
 1733 0004 0100      		.2byte	0x1
 1734 0006 5F        		.byte	0x5f
 1735 0007 3600      		.2byte	.LVL3-.Ltext0
 1736 0009 3900      		.2byte	.LVL4-1-.Ltext0
 1737 000b 0300      		.2byte	0x3
 1738 000d 7F        		.byte	0x7f
 1739 000e 7A        		.sleb128 -6
 1740 000f 9F        		.byte	0x9f
 1741 0010 0000      		.2byte	0
 1742 0012 0000      		.2byte	0
 1743               	.LLST1:
 1744 0014 1C00      		.2byte	.LVL0-.Ltext0
 1745 0016 3900      		.2byte	.LVL4-1-.Ltext0
 1746 0018 0100      		.2byte	0x1
 1747 001a 5E        		.byte	0x5e
 1748 001b 0000      		.2byte	0
 1749 001d 0000      		.2byte	0
 1750               	.LLST2:
 1751 001f 1C00      		.2byte	.LVL0-.Ltext0
 1752 0021 2E00      		.2byte	.LVL2-.Ltext0
 1753 0023 0100      		.2byte	0x1
 1754 0025 5D        		.byte	0x5d
 1755 0026 2E00      		.2byte	.LVL2-.Ltext0
 1756 0028 3900      		.2byte	.LVL4-1-.Ltext0
 1757 002a 0300      		.2byte	0x3
 1758 002c 7D        		.byte	0x7d
 1759 002d 04        		.sleb128 4
 1760 002e 9F        		.byte	0x9f
 1761 002f 0000      		.2byte	0
 1762 0031 0000      		.2byte	0
 1763               	.LLST3:
 1764 0033 2000      		.2byte	.LVL1-.Ltext0
 1765 0035 3900      		.2byte	.LVL4-1-.Ltext0
GAS LISTING /tmp/ccr9DWhv.s 			page 32


 1766 0037 0100      		.2byte	0x1
 1767 0039 5E        		.byte	0x5e
 1768 003a 0000      		.2byte	0
 1769 003c 0000      		.2byte	0
 1770               	.LLST4:
 1771 003e 3C00      		.2byte	.LFB9-.Ltext0
 1772 0040 3E00      		.2byte	.LCFI0-.Ltext0
 1773 0042 0200      		.2byte	0x2
 1774 0044 71        		.byte	0x71
 1775 0045 02        		.sleb128 2
 1776 0046 3E00      		.2byte	.LCFI0-.Ltext0
 1777 0048 4000      		.2byte	.LCFI1-.Ltext0
 1778 004a 0200      		.2byte	0x2
 1779 004c 71        		.byte	0x71
 1780 004d 04        		.sleb128 4
 1781 004e 4000      		.2byte	.LCFI1-.Ltext0
 1782 0050 4200      		.2byte	.LCFI2-.Ltext0
 1783 0052 0200      		.2byte	0x2
 1784 0054 71        		.byte	0x71
 1785 0055 06        		.sleb128 6
 1786 0056 4200      		.2byte	.LCFI2-.Ltext0
 1787 0058 4400      		.2byte	.LCFI3-.Ltext0
 1788 005a 0200      		.2byte	0x2
 1789 005c 71        		.byte	0x71
 1790 005d 08        		.sleb128 8
 1791 005e 4400      		.2byte	.LCFI3-.Ltext0
 1792 0060 E200      		.2byte	.LFE9-.Ltext0
 1793 0062 0200      		.2byte	0x2
 1794 0064 71        		.byte	0x71
 1795 0065 0A        		.sleb128 10
 1796 0066 0000      		.2byte	0
 1797 0068 0000      		.2byte	0
 1798               	.LLST5:
 1799 006a 3C00      		.2byte	.LVL5-.Ltext0
 1800 006c 4A00      		.2byte	.LVL6-.Ltext0
 1801 006e 0100      		.2byte	0x1
 1802 0070 5F        		.byte	0x5f
 1803 0071 4A00      		.2byte	.LVL6-.Ltext0
 1804 0073 9E00      		.2byte	.LVL16-.Ltext0
 1805 0075 0100      		.2byte	0x1
 1806 0077 58        		.byte	0x58
 1807 0078 A600      		.2byte	.LVL19-.Ltext0
 1808 007a D000      		.2byte	.LVL24-.Ltext0
 1809 007c 0100      		.2byte	0x1
 1810 007e 58        		.byte	0x58
 1811 007f D600      		.2byte	.LVL27-.Ltext0
 1812 0081 D800      		.2byte	.LVL28-.Ltext0
 1813 0083 0200      		.2byte	0x2
 1814 0085 7F        		.byte	0x7f
 1815 0086 7C        		.sleb128 -4
 1816 0087 D800      		.2byte	.LVL28-.Ltext0
 1817 0089 DC00      		.2byte	.LVL29-.Ltext0
 1818 008b 0100      		.2byte	0x1
 1819 008d 58        		.byte	0x58
 1820 008e DC00      		.2byte	.LVL29-.Ltext0
 1821 0090 DE00      		.2byte	.LVL30-.Ltext0
 1822 0092 0100      		.2byte	0x1
GAS LISTING /tmp/ccr9DWhv.s 			page 33


 1823 0094 5F        		.byte	0x5f
 1824 0095 DE00      		.2byte	.LVL30-.Ltext0
 1825 0097 E200      		.2byte	.LFE9-.Ltext0
 1826 0099 0100      		.2byte	0x1
 1827 009b 58        		.byte	0x58
 1828 009c 0000      		.2byte	0
 1829 009e 0000      		.2byte	0
 1830               	.LLST6:
 1831 00a0 3C00      		.2byte	.LVL5-.Ltext0
 1832 00a2 5200      		.2byte	.LVL7-.Ltext0
 1833 00a4 0100      		.2byte	0x1
 1834 00a6 5E        		.byte	0x5e
 1835 00a7 5200      		.2byte	.LVL7-.Ltext0
 1836 00a9 A000      		.2byte	.LVL17-.Ltext0
 1837 00ab 0100      		.2byte	0x1
 1838 00ad 59        		.byte	0x59
 1839 00ae A600      		.2byte	.LVL19-.Ltext0
 1840 00b0 D200      		.2byte	.LVL25-.Ltext0
 1841 00b2 0100      		.2byte	0x1
 1842 00b4 59        		.byte	0x59
 1843 00b5 D600      		.2byte	.LVL27-.Ltext0
 1844 00b7 D800      		.2byte	.LVL28-.Ltext0
 1845 00b9 0200      		.2byte	0x2
 1846 00bb 7F        		.byte	0x7f
 1847 00bc 7E        		.sleb128 -2
 1848 00bd D800      		.2byte	.LVL28-.Ltext0
 1849 00bf DE00      		.2byte	.LVL30-.Ltext0
 1850 00c1 0100      		.2byte	0x1
 1851 00c3 5E        		.byte	0x5e
 1852 00c4 DE00      		.2byte	.LVL30-.Ltext0
 1853 00c6 E200      		.2byte	.LFE9-.Ltext0
 1854 00c8 0100      		.2byte	0x1
 1855 00ca 59        		.byte	0x59
 1856 00cb 0000      		.2byte	0
 1857 00cd 0000      		.2byte	0
 1858               	.LLST7:
 1859 00cf 5600      		.2byte	.LVL8-.Ltext0
 1860 00d1 A200      		.2byte	.LVL18-.Ltext0
 1861 00d3 0100      		.2byte	0x1
 1862 00d5 5A        		.byte	0x5a
 1863 00d6 A600      		.2byte	.LVL19-.Ltext0
 1864 00d8 D400      		.2byte	.LVL26-.Ltext0
 1865 00da 0100      		.2byte	0x1
 1866 00dc 5A        		.byte	0x5a
 1867 00dd DE00      		.2byte	.LVL30-.Ltext0
 1868 00df E200      		.2byte	.LFE9-.Ltext0
 1869 00e1 0100      		.2byte	0x1
 1870 00e3 5A        		.byte	0x5a
 1871 00e4 0000      		.2byte	0
 1872 00e6 0000      		.2byte	0
 1873               	.LLST8:
 1874 00e8 6200      		.2byte	.LVL9-.Ltext0
 1875 00ea 6400      		.2byte	.LVL10-.Ltext0
 1876 00ec 0100      		.2byte	0x1
 1877 00ee 5B        		.byte	0x5b
 1878 00ef 6A00      		.2byte	.LVL11-.Ltext0
 1879 00f1 9700      		.2byte	.LVL14-1-.Ltext0
GAS LISTING /tmp/ccr9DWhv.s 			page 34


 1880 00f3 0200      		.2byte	0x2
 1881 00f5 7A        		.byte	0x7a
 1882 00f6 00        		.sleb128 0
 1883 00f7 9700      		.2byte	.LVL14-1-.Ltext0
 1884 00f9 9A00      		.2byte	.LVL15-.Ltext0
 1885 00fb 0100      		.2byte	0x1
 1886 00fd 5B        		.byte	0x5b
 1887 00fe A600      		.2byte	.LVL19-.Ltext0
 1888 0100 AC00      		.2byte	.LVL20-.Ltext0
 1889 0102 0100      		.2byte	0x1
 1890 0104 5B        		.byte	0x5b
 1891 0105 BE00      		.2byte	.LVL21-.Ltext0
 1892 0107 CA00      		.2byte	.LVL22-.Ltext0
 1893 0109 0100      		.2byte	0x1
 1894 010b 5F        		.byte	0x5f
 1895 010c CA00      		.2byte	.LVL22-.Ltext0
 1896 010e CE00      		.2byte	.LVL23-.Ltext0
 1897 0110 0300      		.2byte	0x3
 1898 0112 7F        		.byte	0x7f
 1899 0113 04        		.sleb128 4
 1900 0114 9F        		.byte	0x9f
 1901 0115 CE00      		.2byte	.LVL23-.Ltext0
 1902 0117 D600      		.2byte	.LVL27-.Ltext0
 1903 0119 0100      		.2byte	0x1
 1904 011b 5B        		.byte	0x5b
 1905 011c D600      		.2byte	.LVL27-.Ltext0
 1906 011e D800      		.2byte	.LVL28-.Ltext0
 1907 0120 0100      		.2byte	0x1
 1908 0122 5F        		.byte	0x5f
 1909 0123 0000      		.2byte	0
 1910 0125 0000      		.2byte	0
 1911               	.LLST9:
 1912 0127 7C00      		.2byte	.LVL12-.Ltext0
 1913 0129 9000      		.2byte	.LVL13-.Ltext0
 1914 012b 0100      		.2byte	0x1
 1915 012d 5F        		.byte	0x5f
 1916 012e 0000      		.2byte	0
 1917 0130 0000      		.2byte	0
 1918               	.LLST10:
 1919 0132 E200      		.2byte	.LFB10-.Ltext0
 1920 0134 E400      		.2byte	.LCFI4-.Ltext0
 1921 0136 0200      		.2byte	0x2
 1922 0138 71        		.byte	0x71
 1923 0139 02        		.sleb128 2
 1924 013a E400      		.2byte	.LCFI4-.Ltext0
 1925 013c E600      		.2byte	.LCFI5-.Ltext0
 1926 013e 0200      		.2byte	0x2
 1927 0140 71        		.byte	0x71
 1928 0141 04        		.sleb128 4
 1929 0142 E600      		.2byte	.LCFI5-.Ltext0
 1930 0144 E800      		.2byte	.LCFI6-.Ltext0
 1931 0146 0200      		.2byte	0x2
 1932 0148 71        		.byte	0x71
 1933 0149 06        		.sleb128 6
 1934 014a E800      		.2byte	.LCFI6-.Ltext0
 1935 014c 7401      		.2byte	.LFE10-.Ltext0
 1936 014e 0200      		.2byte	0x2
GAS LISTING /tmp/ccr9DWhv.s 			page 35


 1937 0150 71        		.byte	0x71
 1938 0151 08        		.sleb128 8
 1939 0152 0000      		.2byte	0
 1940 0154 0000      		.2byte	0
 1941               	.LLST11:
 1942 0156 E200      		.2byte	.LVL31-.Ltext0
 1943 0158 F200      		.2byte	.LVL33-.Ltext0
 1944 015a 0100      		.2byte	0x1
 1945 015c 5F        		.byte	0x5f
 1946 015d F200      		.2byte	.LVL33-.Ltext0
 1947 015f 4401      		.2byte	.LVL42-.Ltext0
 1948 0161 0100      		.2byte	0x1
 1949 0163 5A        		.byte	0x5a
 1950 0164 4401      		.2byte	.LVL42-.Ltext0
 1951 0166 4601      		.2byte	.LVL43-.Ltext0
 1952 0168 0300      		.2byte	0x3
 1953 016a 7B        		.byte	0x7b
 1954 016b 04        		.sleb128 4
 1955 016c 9F        		.byte	0x9f
 1956 016d 4801      		.2byte	.LVL44-.Ltext0
 1957 016f 7001      		.2byte	.LVL47-.Ltext0
 1958 0171 0100      		.2byte	0x1
 1959 0173 5A        		.byte	0x5a
 1960 0174 7001      		.2byte	.LVL47-.Ltext0
 1961 0176 7201      		.2byte	.LVL48-.Ltext0
 1962 0178 0300      		.2byte	0x3
 1963 017a 7B        		.byte	0x7b
 1964 017b 04        		.sleb128 4
 1965 017c 9F        		.byte	0x9f
 1966 017d 0000      		.2byte	0
 1967 017f 0000      		.2byte	0
 1968               	.LLST12:
 1969 0181 F600      		.2byte	.LVL34-.Ltext0
 1970 0183 0001      		.2byte	.LVL36-.Ltext0
 1971 0185 0100      		.2byte	0x1
 1972 0187 59        		.byte	0x59
 1973 0188 0001      		.2byte	.LVL36-.Ltext0
 1974 018a 1201      		.2byte	.LVL37-.Ltext0
 1975 018c 0100      		.2byte	0x1
 1976 018e 5E        		.byte	0x5e
 1977 018f 1201      		.2byte	.LVL37-.Ltext0
 1978 0191 1401      		.2byte	.LVL38-.Ltext0
 1979 0193 0200      		.2byte	0x2
 1980 0195 7E        		.byte	0x7e
 1981 0196 00        		.sleb128 0
 1982 0197 1401      		.2byte	.LVL38-.Ltext0
 1983 0199 1601      		.2byte	.LVL39-.Ltext0
 1984 019b 0100      		.2byte	0x1
 1985 019d 5D        		.byte	0x5d
 1986 019e 1601      		.2byte	.LVL39-.Ltext0
 1987 01a0 3F01      		.2byte	.LVL40-1-.Ltext0
 1988 01a2 0100      		.2byte	0x1
 1989 01a4 5E        		.byte	0x5e
 1990 01a5 4801      		.2byte	.LVL44-.Ltext0
 1991 01a7 6B01      		.2byte	.LVL45-1-.Ltext0
 1992 01a9 0100      		.2byte	0x1
 1993 01ab 5E        		.byte	0x5e
GAS LISTING /tmp/ccr9DWhv.s 			page 36


 1994 01ac 0000      		.2byte	0
 1995 01ae 0000      		.2byte	0
 1996               	.LLST13:
 1997 01b0 EE00      		.2byte	.LVL32-.Ltext0
 1998 01b2 4601      		.2byte	.LVL43-.Ltext0
 1999 01b4 0100      		.2byte	0x1
 2000 01b6 5B        		.byte	0x5b
 2001 01b7 4801      		.2byte	.LVL44-.Ltext0
 2002 01b9 7201      		.2byte	.LVL48-.Ltext0
 2003 01bb 0100      		.2byte	0x1
 2004 01bd 5B        		.byte	0x5b
 2005 01be 0000      		.2byte	0
 2006 01c0 0000      		.2byte	0
 2007               	.LLST14:
 2008 01c2 F200      		.2byte	.LVL33-.Ltext0
 2009 01c4 FD00      		.2byte	.LVL35-1-.Ltext0
 2010 01c6 0200      		.2byte	0x2
 2011 01c8 7A        		.byte	0x7a
 2012 01c9 7C        		.sleb128 -4
 2013 01ca FD00      		.2byte	.LVL35-1-.Ltext0
 2014 01cc 4201      		.2byte	.LVL41-.Ltext0
 2015 01ce 0300      		.2byte	0x3
 2016 01d0 79        		.byte	0x79
 2017 01d1 7E        		.sleb128 -2
 2018 01d2 9F        		.byte	0x9f
 2019 01d3 4801      		.2byte	.LVL44-.Ltext0
 2020 01d5 6E01      		.2byte	.LVL46-.Ltext0
 2021 01d7 0300      		.2byte	0x3
 2022 01d9 79        		.byte	0x79
 2023 01da 7E        		.sleb128 -2
 2024 01db 9F        		.byte	0x9f
 2025 01dc 0000      		.2byte	0
 2026 01de 0000      		.2byte	0
 2027               	.LLST15:
 2028 01e0 7401      		.2byte	.LFB11-.Ltext0
 2029 01e2 7601      		.2byte	.LCFI7-.Ltext0
 2030 01e4 0200      		.2byte	0x2
 2031 01e6 71        		.byte	0x71
 2032 01e7 02        		.sleb128 2
 2033 01e8 7601      		.2byte	.LCFI7-.Ltext0
 2034 01ea 7801      		.2byte	.LCFI8-.Ltext0
 2035 01ec 0200      		.2byte	0x2
 2036 01ee 71        		.byte	0x71
 2037 01ef 04        		.sleb128 4
 2038 01f0 7801      		.2byte	.LCFI8-.Ltext0
 2039 01f2 BC01      		.2byte	.LFE11-.Ltext0
 2040 01f4 0200      		.2byte	0x2
 2041 01f6 71        		.byte	0x71
 2042 01f7 06        		.sleb128 6
 2043 01f8 0000      		.2byte	0
 2044 01fa 0000      		.2byte	0
 2045               	.LLST16:
 2046 01fc 7401      		.2byte	.LVL49-.Ltext0
 2047 01fe 8001      		.2byte	.LVL50-.Ltext0
 2048 0200 0100      		.2byte	0x1
 2049 0202 5F        		.byte	0x5f
 2050 0203 8001      		.2byte	.LVL50-.Ltext0
GAS LISTING /tmp/ccr9DWhv.s 			page 37


 2051 0205 9201      		.2byte	.LVL52-.Ltext0
 2052 0207 0100      		.2byte	0x1
 2053 0209 5B        		.byte	0x5b
 2054 020a B601      		.2byte	.LVL59-.Ltext0
 2055 020c BA01      		.2byte	.LVL60-.Ltext0
 2056 020e 0100      		.2byte	0x1
 2057 0210 5B        		.byte	0x5b
 2058 0211 BA01      		.2byte	.LVL60-.Ltext0
 2059 0213 BC01      		.2byte	.LFE11-.Ltext0
 2060 0215 0100      		.2byte	0x1
 2061 0217 5F        		.byte	0x5f
 2062 0218 0000      		.2byte	0
 2063 021a 0000      		.2byte	0
 2064               	.LLST17:
 2065 021c 7401      		.2byte	.LVL49-.Ltext0
 2066 021e 8001      		.2byte	.LVL50-.Ltext0
 2067 0220 0100      		.2byte	0x1
 2068 0222 5E        		.byte	0x5e
 2069 0223 8001      		.2byte	.LVL50-.Ltext0
 2070 0225 B201      		.2byte	.LVL58-.Ltext0
 2071 0227 0100      		.2byte	0x1
 2072 0229 5A        		.byte	0x5a
 2073 022a B601      		.2byte	.LVL59-.Ltext0
 2074 022c BC01      		.2byte	.LFE11-.Ltext0
 2075 022e 0100      		.2byte	0x1
 2076 0230 5A        		.byte	0x5a
 2077 0231 0000      		.2byte	0
 2078 0233 0000      		.2byte	0
 2079               	.LLST18:
 2080 0235 8A01      		.2byte	.LVL51-.Ltext0
 2081 0237 9201      		.2byte	.LVL52-.Ltext0
 2082 0239 0300      		.2byte	0x3
 2083 023b 7B        		.byte	0x7b
 2084 023c 02        		.sleb128 2
 2085 023d 9F        		.byte	0x9f
 2086 023e 9C01      		.2byte	.LVL55-.Ltext0
 2087 0240 9E01      		.2byte	.LVL56-.Ltext0
 2088 0242 0100      		.2byte	0x1
 2089 0244 5D        		.byte	0x5d
 2090 0245 0000      		.2byte	0
 2091 0247 0000      		.2byte	0
 2092               	.LLST19:
 2093 0249 8A01      		.2byte	.LVL51-.Ltext0
 2094 024b 9601      		.2byte	.LVL53-.Ltext0
 2095 024d 0200      		.2byte	0x2
 2096 024f 30        		.byte	0x30
 2097 0250 9F        		.byte	0x9f
 2098 0251 9C01      		.2byte	.LVL55-.Ltext0
 2099 0253 A201      		.2byte	.LVL57-.Ltext0
 2100 0255 0100      		.2byte	0x1
 2101 0257 5B        		.byte	0x5b
 2102 0258 0000      		.2byte	0
 2103 025a 0000      		.2byte	0
 2104               	.LLST20:
 2105 025c 8A01      		.2byte	.LVL51-.Ltext0
 2106 025e 9601      		.2byte	.LVL53-.Ltext0
 2107 0260 0200      		.2byte	0x2
GAS LISTING /tmp/ccr9DWhv.s 			page 38


 2108 0262 30        		.byte	0x30
 2109 0263 9F        		.byte	0x9f
 2110 0264 9A01      		.2byte	.LVL54-.Ltext0
 2111 0266 A201      		.2byte	.LVL57-.Ltext0
 2112 0268 0100      		.2byte	0x1
 2113 026a 5F        		.byte	0x5f
 2114 026b 0000      		.2byte	0
 2115 026d 0000      		.2byte	0
 2116               		.section	.debug_aranges,"",@progbits
 2117 0000 1000 0000 		.4byte	0x10
 2118 0004 0200      		.2byte	0x2
 2119 0006 0000 0000 		.4byte	.Ldebug_info0
 2120 000a 02        		.byte	0x2
 2121 000b 00        		.byte	0
 2122 000c 0000      		.2byte	.Ltext0
 2123 000e BC01      		.2byte	.Letext0-.Ltext0
 2124 0010 0000      		.2byte	0
 2125 0012 0000      		.2byte	0
 2126               		.section	.debug_line,"",@progbits
 2127               	.Ldebug_line0:
 2128 0000 C601 0000 		.section	.debug_str,"MS",@progbits,1
 2128      0200 2F01 
 2128      0000 0101 
 2128      FB0E 0D00 
 2128      0101 0101 
 2129               	.LASF34:
 2130 0000 705F 6D73 		.string	"p_msg"
 2130      6700 
 2131               	.LASF3:
 2132 0006 7369 7A65 		.string	"size_t"
 2132      5F74 00
 2133               	.LASF59:
 2134 000d 7264 796D 		.string	"rdymsg"
 2134      7367 00
 2135               	.LASF49:
 2136 0014 6D65 6D67 		.string	"memgetfunc_t"
 2136      6574 6675 
 2136      6E63 5F74 
 2136      00
 2137               	.LASF10:
 2138 0021 6C6F 6E67 		.string	"long long unsigned int"
 2138      206C 6F6E 
 2138      6720 756E 
 2138      7369 676E 
 2138      6564 2069 
 2139               	.LASF60:
 2140 0038 6578 6974 		.string	"exitcode"
 2140      636F 6465 
 2140      00
 2141               	.LASF53:
 2142 0041 685F 6672 		.string	"h_free"
 2142      6565 00
 2143               	.LASF64:
 2144 0048 6865 6170 		.string	"heapp"
 2144      7000 
 2145               	.LASF65:
 2146 004e 6368 4865 		.string	"chHeapInit"
GAS LISTING /tmp/ccr9DWhv.s 			page 39


 2146      6170 496E 
 2146      6974 00
 2147               	.LASF55:
 2148 0059 6E65 7874 		.string	"next"
 2148      00
 2149               	.LASF22:
 2150 005e 705F 7072 		.string	"p_prio"
 2150      696F 00
 2151               	.LASF4:
 2152 0065 696E 7431 		.string	"int16_t"
 2152      365F 7400 
 2153               	.LASF5:
 2154 006d 6C6F 6E67 		.string	"long long int"
 2154      206C 6F6E 
 2154      6720 696E 
 2154      7400 
 2155               	.LASF2:
 2156 007b 7369 676E 		.string	"signed char"
 2156      6564 2063 
 2156      6861 7200 
 2157               	.LASF54:
 2158 0087 685F 6D74 		.string	"h_mtx"
 2158      7800 
 2159               	.LASF38:
 2160 008d 705F 6D70 		.string	"p_mpool"
 2160      6F6F 6C00 
 2161               	.LASF71:
 2162 0095 474E 5520 		.string	"GNU C 4.6.3 20120301 (mspgcc LTS 20120406 unpatched)"
 2162      4320 342E 
 2162      362E 3320 
 2162      3230 3132 
 2162      3033 3031 
 2163               	.LASF46:
 2164 00ca 6D5F 7175 		.string	"m_queue"
 2164      6575 6500 
 2165               	.LASF66:
 2166 00d2 6368 4865 		.string	"chHeapFree"
 2166      6170 4672 
 2166      6565 00
 2167               	.LASF42:
 2168 00dd 7265 676D 		.string	"regmsp_t"
 2168      7370 5F74 
 2168      00
 2169               	.LASF14:
 2170 00e6 7473 6C69 		.string	"tslices_t"
 2170      6365 735F 
 2170      7400 
 2171               	.LASF0:
 2172 00f0 6C6F 6E67 		.string	"long int"
 2172      2069 6E74 
 2172      00
 2173               	.LASF72:
 2174 00f9 2E2E 2F2E 		.string	"../../os/kernel/src/chheap.c"
 2174      2E2F 6F73 
 2174      2F6B 6572 
 2174      6E65 6C2F 
 2174      7372 632F 
GAS LISTING /tmp/ccr9DWhv.s 			page 40


 2175               	.LASF12:
 2176 0116 7473 7461 		.string	"tstate_t"
 2176      7465 5F74 
 2176      00
 2177               	.LASF8:
 2178 011f 7569 6E74 		.string	"uint16_t"
 2178      3136 5F74 
 2178      00
 2179               	.LASF24:
 2180 0128 705F 6E65 		.string	"p_newer"
 2180      7765 7200 
 2181               	.LASF57:
 2182 0130 616C 6967 		.string	"align"
 2182      6E00 
 2183               	.LASF1:
 2184 0136 756E 7369 		.string	"unsigned int"
 2184      676E 6564 
 2184      2069 6E74 
 2184      00
 2185               	.LASF9:
 2186 0143 6C6F 6E67 		.string	"long unsigned int"
 2186      2075 6E73 
 2186      6967 6E65 
 2186      6420 696E 
 2186      7400 
 2187               	.LASF44:
 2188 0155 636F 6E74 		.string	"context"
 2188      6578 7400 
 2189               	.LASF58:
 2190 015d 7369 7A65 		.string	"size"
 2190      00
 2191               	.LASF16:
 2192 0162 6D73 675F 		.string	"msg_t"
 2192      7400 
 2193               	.LASF11:
 2194 0168 746D 6F64 		.string	"tmode_t"
 2194      655F 7400 
 2195               	.LASF40:
 2196 0170 5468 7265 		.string	"ThreadsList"
 2196      6164 734C 
 2196      6973 7400 
 2197               	.LASF17:
 2198 017c 6576 656E 		.string	"eventmask_t"
 2198      746D 6173 
 2198      6B5F 7400 
 2199               	.LASF45:
 2200 0188 4D75 7465 		.string	"Mutex"
 2200      7800 
 2201               	.LASF41:
 2202 018e 7374 6B61 		.string	"stkalign_t"
 2202      6C69 676E 
 2202      5F74 00
 2203               	.LASF73:
 2204 0199 2F68 6F6D 		.ascii	"/home/erwin/di"
 2204      652F 6572 
 2204      7769 6E2F 
 2204      6469 
GAS LISTING /tmp/ccr9DWhv.s 			page 41


 2205 01a7 736B 2F44 		.string	"sk/Documentos/UNAL/Practica/chibios/demos/MSP430-MSP430x1611-GCC"
 2205      6F63 756D 
 2205      656E 746F 
 2205      732F 554E 
 2205      414C 2F50 
 2206               	.LASF25:
 2207 01e8 705F 6F6C 		.string	"p_older"
 2207      6465 7200 
 2208               	.LASF39:
 2209 01f0 5468 7265 		.string	"ThreadsQueue"
 2209      6164 7351 
 2209      7565 7565 
 2209      00
 2210               	.LASF50:
 2211 01fd 4D65 6D6F 		.string	"MemoryHeap"
 2211      7279 4865 
 2211      6170 00
 2212               	.LASF13:
 2213 0208 7472 6566 		.string	"trefs_t"
 2213      735F 7400 
 2214               	.LASF21:
 2215 0210 705F 7072 		.string	"p_prev"
 2215      6576 00
 2216               	.LASF15:
 2217 0217 7470 7269 		.string	"tprio_t"
 2217      6F5F 7400 
 2218               	.LASF7:
 2219 021f 756E 7369 		.string	"unsigned char"
 2219      676E 6564 
 2219      2063 6861 
 2219      7200 
 2220               	.LASF52:
 2221 022d 685F 7072 		.string	"h_provider"
 2221      6F76 6964 
 2221      6572 00
 2222               	.LASF36:
 2223 0238 705F 6D74 		.string	"p_mtxlist"
 2223      786C 6973 
 2223      7400 
 2224               	.LASF27:
 2225 0242 705F 7374 		.string	"p_state"
 2225      6174 6500 
 2226               	.LASF30:
 2227 024a 705F 7072 		.string	"p_preempt"
 2227      6565 6D70 
 2227      7400 
 2228               	.LASF74:
 2229 0254 6865 6170 		.string	"heap_header"
 2229      5F68 6561 
 2229      6465 7200 
 2230               	.LASF62:
 2231 0260 6577 6D61 		.string	"ewmask"
 2231      736B 00
 2232               	.LASF20:
 2233 0267 705F 6E65 		.string	"p_next"
 2233      7874 00
 2234               	.LASF28:
GAS LISTING /tmp/ccr9DWhv.s 			page 42


 2235 026e 705F 666C 		.string	"p_flags"
 2235      6167 7300 
 2236               	.LASF19:
 2237 0276 5468 7265 		.string	"Thread"
 2237      6164 00
 2238               	.LASF67:
 2239 027d 6368 4865 		.string	"chHeapAlloc"
 2239      6170 416C 
 2239      6C6F 6300 
 2240               	.LASF35:
 2241 0289 705F 6570 		.string	"p_epending"
 2241      656E 6469 
 2241      6E67 00
 2242               	.LASF56:
 2243 0294 6865 6170 		.string	"heap"
 2243      00
 2244               	.LASF70:
 2245 0299 6465 6661 		.string	"default_heap"
 2245      756C 745F 
 2245      6865 6170 
 2245      00
 2246               	.LASF63:
 2247 02a6 6368 6172 		.string	"char"
 2247      00
 2248               	.LASF68:
 2249 02ab 6368 4865 		.string	"chHeapStatus"
 2249      6170 5374 
 2249      6174 7573 
 2249      00
 2250               	.LASF48:
 2251 02b8 6D5F 6E65 		.string	"m_next"
 2251      7874 00
 2252               	.LASF18:
 2253 02bf 7379 7374 		.string	"systime_t"
 2253      696D 655F 
 2253      7400 
 2254               	.LASF37:
 2255 02c9 705F 7265 		.string	"p_realprio"
 2255      616C 7072 
 2255      696F 00
 2256               	.LASF31:
 2257 02d4 705F 7469 		.string	"p_time"
 2257      6D65 00
 2258               	.LASF43:
 2259 02db 696E 7463 		.string	"intctx"
 2259      7478 00
 2260               	.LASF33:
 2261 02e2 705F 6D73 		.string	"p_msgqueue"
 2261      6771 7565 
 2261      7565 00
 2262               	.LASF29:
 2263 02ed 705F 7265 		.string	"p_refs"
 2263      6673 00
 2264               	.LASF6:
 2265 02f4 7569 6E74 		.string	"uint8_t"
 2265      385F 7400 
 2266               	.LASF61:
GAS LISTING /tmp/ccr9DWhv.s 			page 43


 2267 02fc 7774 6F62 		.string	"wtobjp"
 2267      6A70 00
 2268               	.LASF69:
 2269 0303 7369 7A65 		.string	"sizep"
 2269      7000 
 2270               	.LASF26:
 2271 0309 705F 6E61 		.string	"p_name"
 2271      6D65 00
 2272               	.LASF75:
 2273 0310 5F68 6561 		.string	"_heap_init"
 2273      705F 696E 
 2273      6974 00
 2274               	.LASF47:
 2275 031b 6D5F 6F77 		.string	"m_owner"
 2275      6E65 7200 
 2276               	.LASF23:
 2277 0323 705F 6374 		.string	"p_ctx"
 2277      7800 
 2278               	.LASF32:
 2279 0329 705F 7761 		.string	"p_waiting"
 2279      6974 696E 
 2279      6700 
 2280               	.LASF51:
 2281 0333 6D65 6D6F 		.string	"memory_heap"
 2281      7279 5F68 
 2281      6561 7000 
GAS LISTING /tmp/ccr9DWhv.s 			page 44


DEFINED SYMBOLS
                            *ABS*:0000000000000000 chheap.c
     /tmp/ccr9DWhv.s:14     .text:0000000000000000 _heap_init
     /tmp/ccr9DWhv.s:415    .bss:0000000000000000 default_heap
     /tmp/ccr9DWhv.s:41     .text:000000000000001c chHeapInit
     /tmp/ccr9DWhv.s:76     .text:000000000000003c chHeapAlloc
     /tmp/ccr9DWhv.s:226    .text:00000000000000e2 chHeapFree
     /tmp/ccr9DWhv.s:348    .text:0000000000000174 chHeapStatus

UNDEFINED SYMBOLS
chCoreAlloc
chMtxInit
chMtxLock
chMtxUnlock
