GAS LISTING /tmp/ccbDgbuk.s 			page 1


   1               		.file	"pwm.c"
   2               		.arch msp430x1611
   3               		.cpu 430
   4               		.mpy 16
   5               	
   6               		.text
   7               	.Ltext0:
   8               	.Letext0:
   9               		.section	.debug_info,"",@progbits
  10               	.Ldebug_info0:
  11 0000 5D00 0000 		.4byte	0x5d
  12 0004 0200      		.2byte	0x2
  13 0006 0000 0000 		.4byte	.Ldebug_abbrev0
  14 000a 02        		.byte	0x2
  15 000b 01        		.uleb128 0x1
  16 000c 0000 0000 		.4byte	.LASF8
  17 0010 01        		.byte	0x1
  18 0011 0000 0000 		.4byte	.LASF9
  19 0015 0000 0000 		.4byte	.LASF10
  20 0019 0000      		.2byte	.Ltext0
  21 001b 0000      		.2byte	.Letext0
  22 001d 0000 0000 		.4byte	.Ldebug_line0
  23 0021 02        		.uleb128 0x2
  24 0022 04        		.byte	0x4
  25 0023 05        		.byte	0x5
  26 0024 0000 0000 		.4byte	.LASF0
  27 0028 02        		.uleb128 0x2
  28 0029 02        		.byte	0x2
  29 002a 07        		.byte	0x7
  30 002b 0000 0000 		.4byte	.LASF1
  31 002f 02        		.uleb128 0x2
  32 0030 01        		.byte	0x1
  33 0031 06        		.byte	0x6
  34 0032 0000 0000 		.4byte	.LASF2
  35 0036 03        		.uleb128 0x3
  36 0037 02        		.byte	0x2
  37 0038 05        		.byte	0x5
  38 0039 696E 7400 		.string	"int"
  39 003d 02        		.uleb128 0x2
  40 003e 08        		.byte	0x8
  41 003f 05        		.byte	0x5
  42 0040 0000 0000 		.4byte	.LASF3
  43 0044 02        		.uleb128 0x2
  44 0045 01        		.byte	0x1
  45 0046 08        		.byte	0x8
  46 0047 0000 0000 		.4byte	.LASF4
  47 004b 02        		.uleb128 0x2
  48 004c 04        		.byte	0x4
  49 004d 07        		.byte	0x7
  50 004e 0000 0000 		.4byte	.LASF5
  51 0052 02        		.uleb128 0x2
  52 0053 08        		.byte	0x8
  53 0054 07        		.byte	0x7
  54 0055 0000 0000 		.4byte	.LASF6
  55 0059 02        		.uleb128 0x2
  56 005a 01        		.byte	0x1
  57 005b 06        		.byte	0x6
GAS LISTING /tmp/ccbDgbuk.s 			page 2


  58 005c 0000 0000 		.4byte	.LASF7
  59 0060 00        		.byte	0
  60               		.section	.debug_abbrev,"",@progbits
  61               	.Ldebug_abbrev0:
  62 0000 01        		.uleb128 0x1
  63 0001 11        		.uleb128 0x11
  64 0002 01        		.byte	0x1
  65 0003 25        		.uleb128 0x25
  66 0004 0E        		.uleb128 0xe
  67 0005 13        		.uleb128 0x13
  68 0006 0B        		.uleb128 0xb
  69 0007 03        		.uleb128 0x3
  70 0008 0E        		.uleb128 0xe
  71 0009 1B        		.uleb128 0x1b
  72 000a 0E        		.uleb128 0xe
  73 000b 11        		.uleb128 0x11
  74 000c 01        		.uleb128 0x1
  75 000d 12        		.uleb128 0x12
  76 000e 01        		.uleb128 0x1
  77 000f 10        		.uleb128 0x10
  78 0010 06        		.uleb128 0x6
  79 0011 00        		.byte	0
  80 0012 00        		.byte	0
  81 0013 02        		.uleb128 0x2
  82 0014 24        		.uleb128 0x24
  83 0015 00        		.byte	0
  84 0016 0B        		.uleb128 0xb
  85 0017 0B        		.uleb128 0xb
  86 0018 3E        		.uleb128 0x3e
  87 0019 0B        		.uleb128 0xb
  88 001a 03        		.uleb128 0x3
  89 001b 0E        		.uleb128 0xe
  90 001c 00        		.byte	0
  91 001d 00        		.byte	0
  92 001e 03        		.uleb128 0x3
  93 001f 24        		.uleb128 0x24
  94 0020 00        		.byte	0
  95 0021 0B        		.uleb128 0xb
  96 0022 0B        		.uleb128 0xb
  97 0023 3E        		.uleb128 0x3e
  98 0024 0B        		.uleb128 0xb
  99 0025 03        		.uleb128 0x3
 100 0026 08        		.uleb128 0x8
 101 0027 00        		.byte	0
 102 0028 00        		.byte	0
 103 0029 00        		.byte	0
 104               		.section	.debug_line,"",@progbits
 105               	.Ldebug_line0:
 106 0000 1900 0000 		.section	.debug_str,"MS",@progbits,1
 106      0200 1300 
 106      0000 0101 
 106      FB0E 0D00 
 106      0101 0101 
 107               	.LASF10:
 108 0000 2F68 6F6D 		.ascii	"/home/erwin/di"
 108      652F 6572 
 108      7769 6E2F 
GAS LISTING /tmp/ccbDgbuk.s 			page 3


 108      6469 
 109 000e 736B 2F44 		.string	"sk/Documentos/UNAL/Practica/chibios/demos/MSP430-MSP430x1611-GCC"
 109      6F63 756D 
 109      656E 746F 
 109      732F 554E 
 109      414C 2F50 
 110               	.LASF1:
 111 004f 756E 7369 		.string	"unsigned int"
 111      676E 6564 
 111      2069 6E74 
 111      00
 112               	.LASF5:
 113 005c 6C6F 6E67 		.string	"long unsigned int"
 113      2075 6E73 
 113      6967 6E65 
 113      6420 696E 
 113      7400 
 114               	.LASF2:
 115 006e 7369 676E 		.string	"signed char"
 115      6564 2063 
 115      6861 7200 
 116               	.LASF8:
 117 007a 474E 5520 		.string	"GNU C 4.6.3 20120301 (mspgcc LTS 20120406 unpatched)"
 117      4320 342E 
 117      362E 3320 
 117      3230 3132 
 117      3033 3031 
 118               	.LASF6:
 119 00af 6C6F 6E67 		.string	"long long unsigned int"
 119      206C 6F6E 
 119      6720 756E 
 119      7369 676E 
 119      6564 2069 
 120               	.LASF4:
 121 00c6 756E 7369 		.string	"unsigned char"
 121      676E 6564 
 121      2063 6861 
 121      7200 
 122               	.LASF0:
 123 00d4 6C6F 6E67 		.string	"long int"
 123      2069 6E74 
 123      00
 124               	.LASF9:
 125 00dd 2E2E 2F2E 		.string	"../../os/hal/src/pwm.c"
 125      2E2F 6F73 
 125      2F68 616C 
 125      2F73 7263 
 125      2F70 776D 
 126               	.LASF7:
 127 00f4 6368 6172 		.string	"char"
 127      00
 128               	.LASF3:
 129 00f9 6C6F 6E67 		.string	"long long int"
 129      206C 6F6E 
 129      6720 696E 
 129      7400 
GAS LISTING /tmp/ccbDgbuk.s 			page 4


DEFINED SYMBOLS
                            *ABS*:0000000000000000 pwm.c

NO UNDEFINED SYMBOLS
